2019-06-04 09:45:09.383 INFO  55 RTTController.Core.API.Controllers.UserController DIAGNOSTICCONTEXT:(null) MESSAGE:Authenticate User Request:{"Username":"jsingh@ex2india.com","Password":"password123"} ADDITIONALDATA: (null) EXCEPTION: CLIENTIP:(null) HOSTIP:(null) REQUESTIDENTIFIER:(null) SESSIONIDENTIFIER:(null) 
2019-06-04 09:45:25.776 INFO  52 RTTController.Core.API.Controllers.UserController DIAGNOSTICCONTEXT:(null) MESSAGE:Authenticate User Request:{"Username":"jsingh@ex2india.com","Password":"password123"} ADDITIONALDATA: (null) EXCEPTION: CLIENTIP:(null) HOSTIP:(null) REQUESTIDENTIFIER:(null) SESSIONIDENTIFIER:(null) 
2019-06-04 09:47:13.071 INFO  55 RTTController.Core.API.Controllers.UserController DIAGNOSTICCONTEXT:(null) MESSAGE:Authenticate User Request:{"Username":"jsingh@ex2india.com","Password":"password123"} ADDITIONALDATA: (null) EXCEPTION: CLIENTIP:(null) HOSTIP:(null) REQUESTIDENTIFIER:(null) SESSIONIDENTIFIER:(null) 
2019-06-04 09:47:59.507 INFO  61 RTTController.Core.API.Controllers.UserController DIAGNOSTICCONTEXT:(null) MESSAGE:Authenticate User Request:{"Username":"jsingh@ex2india.com","Password":"password123"} ADDITIONALDATA: (null) EXCEPTION: CLIENTIP:(null) HOSTIP:(null) REQUESTIDENTIFIER:(null) SESSIONIDENTIFIER:(null) 
2019-06-04 09:48:41.875 INFO  64 RTTController.Core.API.Controllers.UserController DIAGNOSTICCONTEXT:(null) MESSAGE:Authenticate User Request:{"Username":"jsingh@ex2india.com","Password":"password123"} ADDITIONALDATA: (null) EXCEPTION: CLIENTIP:(null) HOSTIP:(null) REQUESTIDENTIFIER:(null) SESSIONIDENTIFIER:(null) 
2019-06-04 09:51:34.231 INFO  64 RTTController.Core.API.Controllers.UserController DIAGNOSTICCONTEXT:(null) MESSAGE:Authenticate User Request:{"Username":"jsingh@ex2india.com","Password":"password123"} ADDITIONALDATA: (null) EXCEPTION: CLIENTIP:(null) HOSTIP:(null) REQUESTIDENTIFIER:(null) SESSIONIDENTIFIER:(null) 
2019-06-04 09:55:30.371 INFO  58 RTTController.Core.API.Controllers.UserController DIAGNOSTICCONTEXT:(null) MESSAGE:Authenticate User Request:{"Username":"jsingh@ex2india.com","Password":"password123"} ADDITIONALDATA: (null) EXCEPTION: CLIENTIP:(null) HOSTIP:(null) REQUESTIDENTIFIER:(null) SESSIONIDENTIFIER:(null) 
2019-06-04 09:56:31.481 INFO  71 RTTController.Core.API.Controllers.UserController DIAGNOSTICCONTEXT:(null) MESSAGE:Authenticate User Request:{"Username":"jsingh@ex2india.com","Password":"password123"} ADDITIONALDATA: (null) EXCEPTION: CLIENTIP:(null) HOSTIP:(null) REQUESTIDENTIFIER:(null) SESSIONIDENTIFIER:(null) 
2019-06-04 09:56:57.757 INFO  69 RTTController.Core.API.Controllers.UserController DIAGNOSTICCONTEXT:(null) MESSAGE:Authenticate User Request:{"Username":"jsingh@ex2india.com","Password":"password123"} ADDITIONALDATA: (null) EXCEPTION: CLIENTIP:(null) HOSTIP:(null) REQUESTIDENTIFIER:(null) SESSIONIDENTIFIER:(null) 
2019-06-04 09:58:47.534 INFO  73 RTTController.Core.API.Controllers.UserController DIAGNOSTICCONTEXT:(null) MESSAGE:Authenticate User Request:{"Username":"jsingh@ex2india.com","Password":"password123"} ADDITIONALDATA: (null) EXCEPTION: CLIENTIP:(null) HOSTIP:(null) REQUESTIDENTIFIER:(null) SESSIONIDENTIFIER:(null) 
2019-06-04 09:59:25.337 INFO  73 RTTController.Core.API.Controllers.UserController DIAGNOSTICCONTEXT:(null) MESSAGE:Authenticate User Request:{"Username":"jsingh@ex2india.com","Password":"password123"} ADDITIONALDATA: (null) EXCEPTION: CLIENTIP:(null) HOSTIP:(null) REQUESTIDENTIFIER:(null) SESSIONIDENTIFIER:(null) 
2019-06-04 12:19:18.585 INFO  51 RTTController.Core.API.Controllers.UserController DIAGNOSTICCONTEXT:(null) MESSAGE:Authenticate User Request:{"Username":"jsingh@ex2india.com","Password":"password123"} ADDITIONALDATA: (null) EXCEPTION: CLIENTIP:(null) HOSTIP:(null) REQUESTIDENTIFIER:(null) SESSIONIDENTIFIER:(null) 
2019-06-04 12:22:03.860 INFO  46 RTTController.Core.API.Controllers.UserController DIAGNOSTICCONTEXT:(null) MESSAGE:Authenticate User Request:{"Username":"jsingh@ex2india.com","Password":"password123"} ADDITIONALDATA: (null) EXCEPTION: CLIENTIP:(null) HOSTIP:(null) REQUESTIDENTIFIER:(null) SESSIONIDENTIFIER:(null) 
2019-06-04 12:25:06.318 INFO  30 RTTController.Core.API.Controllers.UserController DIAGNOSTICCONTEXT:(null) MESSAGE:Invite User Request:{"GameId":18,"GameName":"Urbana","Email":"sandeep60@yopmail.com"} ADDITIONALDATA: (null) EXCEPTION: CLIENTIP:(null) HOSTIP:(null) REQUESTIDENTIFIER:(null) SESSIONIDENTIFIER:(null) 
2019-06-04 12:25:11.984 INFO  59 RTTController.Services.Services.CloudService DIAGNOSTICCONTEXT:(null) MESSAGE:Email Response {"MessageId":"0100016b21497f68-9d6a8c53-0ce0-4141-94ef-a6d4006160cc-000000","ResponseMetadata":{"RequestId":"5a80af83-8696-11e9-8610-759eb33d9801","Metadata":{}},"ContentLength":326,"HttpStatusCode":200} ADDITIONALDATA: (null) EXCEPTION: CLIENTIP:(null) HOSTIP:(null) REQUESTIDENTIFIER:(null) SESSIONIDENTIFIER:(null) 
2019-06-04 12:26:04.497 INFO  10 RTTController.Core.API.Controllers.UserController DIAGNOSTICCONTEXT:(null) MESSAGE:Authenticate User Request:{"Username":"sandeep60@yopmail.com","Password":"password12@"} ADDITIONALDATA: (null) EXCEPTION: CLIENTIP:(null) HOSTIP:(null) REQUESTIDENTIFIER:(null) SESSIONIDENTIFIER:(null) 
2019-06-04 12:33:05.437 INFO  9 RTTController.Core.API.Controllers.UserController DIAGNOSTICCONTEXT:(null) MESSAGE:Authenticate User Request:{"Username":"sandeep60@yopmail.com","Password":"password12@"} ADDITIONALDATA: (null) EXCEPTION: CLIENTIP:(null) HOSTIP:(null) REQUESTIDENTIFIER:(null) SESSIONIDENTIFIER:(null) 
2019-06-04 14:20:31.441 INFO  23 RTTController.Core.API.Controllers.UserController DIAGNOSTICCONTEXT:(null) MESSAGE:Authenticate User Request:{"Username":"jsingh@ex2india.com","Password":"password123"} ADDITIONALDATA: (null) EXCEPTION: CLIENTIP:(null) HOSTIP:(null) REQUESTIDENTIFIER:(null) SESSIONIDENTIFIER:(null) 
2019-06-04 14:55:07.630 INFO  34 RTTController.Services.Services.CloudService DIAGNOSTICCONTEXT:(null) MESSAGE:AWS File Upload response{"Expiration":null,"ServerSideEncryptionMethod":null,"ETag":"\"4096844ad5e655037ca0fbaa3e098c47\"","VersionId":null,"ServerSideEncryptionKeyManagementServiceKeyId":null,"RequestCharged":null,"ResponseMetadata":{"RequestId":"235FFBECACE39D18","Metadata":{"x-amz-id-2":"VI6wWz7utYvCd8fj9bx0KurYyABbtcHqJHFi6ITQvCtyBivtFKBVoPk9AQ1FS9NEsVC6jFZpgLw="}},"ContentLength":0,"HttpStatusCode":200} ADDITIONALDATA: (null) EXCEPTION: CLIENTIP:(null) HOSTIP:(null) REQUESTIDENTIFIER:(null) SESSIONIDENTIFIER:(null) 
2019-06-04 14:55:07.659 INFO  34 RTTController.Core.API.Controllers.GamePlanController DIAGNOSTICCONTEXT:(null) MESSAGE:Create game plan request{"GameId":0,"BuilderId":1057,"GameName":"Test Game","GamePlanImages":[{"FloorId":1,"FloorImage":"156adca4-209f-4282-b737-497b9a115975MartinRay_1.svg"}],"CategoryGameMap":null} ADDITIONALDATA: (null) EXCEPTION: CLIENTIP:(null) HOSTIP:(null) REQUESTIDENTIFIER:(null) SESSIONIDENTIFIER:(null) 
2019-06-04 15:22:34.944 INFO  28 RTTController.Core.API.Controllers.UserController DIAGNOSTICCONTEXT:(null) MESSAGE:Authenticate User Request:{"Username":"jsingh@ex2india.com","Password":"password123"} ADDITIONALDATA: (null) EXCEPTION: CLIENTIP:(null) HOSTIP:(null) REQUESTIDENTIFIER:(null) SESSIONIDENTIFIER:(null) 
2019-06-04 15:25:08.054 INFO  54 RTTController.Core.API.Controllers.UserController DIAGNOSTICCONTEXT:(null) MESSAGE:Authenticate User Request:{"Username":"jsingh@ex2india.com","Password":"password123"} ADDITIONALDATA: (null) EXCEPTION: CLIENTIP:(null) HOSTIP:(null) REQUESTIDENTIFIER:(null) SESSIONIDENTIFIER:(null) 
2019-06-04 15:27:31.080 INFO  50 RTTController.Core.API.Controllers.UserController DIAGNOSTICCONTEXT:(null) MESSAGE:Authenticate User Request:{"Username":"jsingh@ex2india.com","Password":"password123"} ADDITIONALDATA: (null) EXCEPTION: CLIENTIP:(null) HOSTIP:(null) REQUESTIDENTIFIER:(null) SESSIONIDENTIFIER:(null) 
2019-06-04 15:29:16.545 INFO  61 RTTController.Core.API.Controllers.UserController DIAGNOSTICCONTEXT:(null) MESSAGE:Authenticate User Request:{"Username":"jsingh@ex2india.com","Password":"password123"} ADDITIONALDATA: (null) EXCEPTION: CLIENTIP:(null) HOSTIP:(null) REQUESTIDENTIFIER:(null) SESSIONIDENTIFIER:(null) 
2019-06-04 15:30:08.710 INFO  64 RTTController.Core.API.Controllers.UserController DIAGNOSTICCONTEXT:(null) MESSAGE:Authenticate User Request:{"Username":"jsingh@ex2india.com","Password":"password123"} ADDITIONALDATA: (null) EXCEPTION: CLIENTIP:(null) HOSTIP:(null) REQUESTIDENTIFIER:(null) SESSIONIDENTIFIER:(null) 
2019-06-04 15:39:45.266 ERROR 91 RTTController.Core.API.Middleware.ExceptionMiddlewareExtensions DIAGNOSTICCONTEXT:(null) MESSAGE:Something went wrong: URL /api/game/update   
 System.InvalidOperationException: Incorrect Content-Type: 
   at Microsoft.AspNetCore.Http.Features.FormFeature.ReadForm()
   at Microsoft.AspNetCore.Http.Internal.DefaultHttpRequest.get_Form()
   at RTTController.Core.API.Controllers.GamePlanController.UpdateGame() in D:\Sandeep\Projects\RTTController\RTTController\RTTController.Core.API\Controllers\GamePlanController.cs:line 172
   at Microsoft.AspNetCore.Mvc.Internal.ActionMethodExecutor.TaskOfIActionResultExecutor.Execute(IActionResultTypeMapper mapper, ObjectMethodExecutor executor, Object controller, Object[] arguments)
   at System.Threading.Tasks.ValueTask`1.get_Result()
   at Microsoft.AspNetCore.Mvc.Internal.ControllerActionInvoker.InvokeActionMethodAsync()
   at Microsoft.AspNetCore.Mvc.Internal.ControllerActionInvoker.InvokeNextActionFilterAsync()
   at Microsoft.AspNetCore.Mvc.Internal.ControllerActionInvoker.Rethrow(ActionExecutedContext context)
   at Microsoft.AspNetCore.Mvc.Internal.ControllerActionInvoker.Next(State& next, Scope& scope, Object& state, Boolean& isCompleted)
   at Microsoft.AspNetCore.Mvc.Internal.ControllerActionInvoker.InvokeInnerFilterAsync()
   at Microsoft.AspNetCore.Mvc.Internal.ResourceInvoker.InvokeNextResourceFilter()
   at Microsoft.AspNetCore.Mvc.Internal.ResourceInvoker.Rethrow(ResourceExecutedContext context)
   at Microsoft.AspNetCore.Mvc.Internal.ResourceInvoker.Next(State& next, Scope& scope, Object& state, Boolean& isCompleted)
   at Microsoft.AspNetCore.Mvc.Internal.ResourceInvoker.InvokeFilterPipelineAsync()
   at Microsoft.AspNetCore.Mvc.Internal.ResourceInvoker.InvokeAsync()
   at Microsoft.AspNetCore.Routing.EndpointMiddleware.Invoke(HttpContext httpContext)
   at Microsoft.AspNetCore.Routing.EndpointRoutingMiddleware.Invoke(HttpContext httpContext)
   at Microsoft.AspNetCore.Diagnostics.ExceptionHandlerMiddleware.Invoke(HttpContext context) ADDITIONALDATA: (null) EXCEPTION: CLIENTIP:(null) HOSTIP:(null) REQUESTIDENTIFIER:(null) SESSIONIDENTIFIER:(null) 
2019-06-04 15:40:49.153 INFO  84 RTTController.Core.API.Controllers.UserController DIAGNOSTICCONTEXT:(null) MESSAGE:Authenticate User Request:{"Username":"jsingh@ex2india.com","Password":"password123"} ADDITIONALDATA: (null) EXCEPTION: CLIENTIP:(null) HOSTIP:(null) REQUESTIDENTIFIER:(null) SESSIONIDENTIFIER:(null) 
2019-06-04 15:41:29.425 ERROR 67 RTTController.Core.API.Middleware.ExceptionMiddlewareExtensions DIAGNOSTICCONTEXT:(null) MESSAGE:Something went wrong: URL /api/game/update   
 System.InvalidOperationException: Incorrect Content-Type: 
   at Microsoft.AspNetCore.Http.Features.FormFeature.ReadForm()
   at Microsoft.AspNetCore.Http.Internal.DefaultHttpRequest.get_Form()
   at RTTController.Core.API.Controllers.GamePlanController.UpdateGame() in D:\Sandeep\Projects\RTTController\RTTController\RTTController.Core.API\Controllers\GamePlanController.cs:line 172
   at Microsoft.AspNetCore.Mvc.Internal.ActionMethodExecutor.TaskOfIActionResultExecutor.Execute(IActionResultTypeMapper mapper, ObjectMethodExecutor executor, Object controller, Object[] arguments)
   at System.Threading.Tasks.ValueTask`1.get_Result()
   at Microsoft.AspNetCore.Mvc.Internal.ControllerActionInvoker.InvokeActionMethodAsync()
   at Microsoft.AspNetCore.Mvc.Internal.ControllerActionInvoker.InvokeNextActionFilterAsync()
   at Microsoft.AspNetCore.Mvc.Internal.ControllerActionInvoker.Rethrow(ActionExecutedContext context)
   at Microsoft.AspNetCore.Mvc.Internal.ControllerActionInvoker.Next(State& next, Scope& scope, Object& state, Boolean& isCompleted)
   at Microsoft.AspNetCore.Mvc.Internal.ControllerActionInvoker.InvokeInnerFilterAsync()
   at Microsoft.AspNetCore.Mvc.Internal.ResourceInvoker.InvokeNextResourceFilter()
   at Microsoft.AspNetCore.Mvc.Internal.ResourceInvoker.Rethrow(ResourceExecutedContext context)
   at Microsoft.AspNetCore.Mvc.Internal.ResourceInvoker.Next(State& next, Scope& scope, Object& state, Boolean& isCompleted)
   at Microsoft.AspNetCore.Mvc.Internal.ResourceInvoker.InvokeFilterPipelineAsync()
   at Microsoft.AspNetCore.Mvc.Internal.ResourceInvoker.InvokeAsync()
   at Microsoft.AspNetCore.Routing.EndpointMiddleware.Invoke(HttpContext httpContext)
   at Microsoft.AspNetCore.Routing.EndpointRoutingMiddleware.Invoke(HttpContext httpContext)
   at Microsoft.AspNetCore.Diagnostics.ExceptionHandlerMiddleware.Invoke(HttpContext context) ADDITIONALDATA: (null) EXCEPTION: CLIENTIP:(null) HOSTIP:(null) REQUESTIDENTIFIER:(null) SESSIONIDENTIFIER:(null) 
2019-06-04 15:43:34.424 ERROR 79 RTTController.Core.API.Middleware.ExceptionMiddlewareExtensions DIAGNOSTICCONTEXT:(null) MESSAGE:Something went wrong: URL /api/game/update/   
 System.InvalidOperationException: Incorrect Content-Type: 
   at Microsoft.AspNetCore.Http.Features.FormFeature.ReadForm()
   at Microsoft.AspNetCore.Http.Internal.DefaultHttpRequest.get_Form()
   at RTTController.Core.API.Controllers.GamePlanController.UpdateGame() in D:\Sandeep\Projects\RTTController\RTTController\RTTController.Core.API\Controllers\GamePlanController.cs:line 172
   at Microsoft.AspNetCore.Mvc.Internal.ActionMethodExecutor.TaskOfIActionResultExecutor.Execute(IActionResultTypeMapper mapper, ObjectMethodExecutor executor, Object controller, Object[] arguments)
   at System.Threading.Tasks.ValueTask`1.get_Result()
   at Microsoft.AspNetCore.Mvc.Internal.ControllerActionInvoker.InvokeActionMethodAsync()
   at Microsoft.AspNetCore.Mvc.Internal.ControllerActionInvoker.InvokeNextActionFilterAsync()
   at Microsoft.AspNetCore.Mvc.Internal.ControllerActionInvoker.Rethrow(ActionExecutedContext context)
   at Microsoft.AspNetCore.Mvc.Internal.ControllerActionInvoker.Next(State& next, Scope& scope, Object& state, Boolean& isCompleted)
   at Microsoft.AspNetCore.Mvc.Internal.ControllerActionInvoker.InvokeInnerFilterAsync()
   at Microsoft.AspNetCore.Mvc.Internal.ResourceInvoker.InvokeNextResourceFilter()
   at Microsoft.AspNetCore.Mvc.Internal.ResourceInvoker.Rethrow(ResourceExecutedContext context)
   at Microsoft.AspNetCore.Mvc.Internal.ResourceInvoker.Next(State& next, Scope& scope, Object& state, Boolean& isCompleted)
   at Microsoft.AspNetCore.Mvc.Internal.ResourceInvoker.InvokeFilterPipelineAsync()
   at Microsoft.AspNetCore.Mvc.Internal.ResourceInvoker.InvokeAsync()
   at Microsoft.AspNetCore.Routing.EndpointMiddleware.Invoke(HttpContext httpContext)
   at Microsoft.AspNetCore.Routing.EndpointRoutingMiddleware.Invoke(HttpContext httpContext)
   at Microsoft.AspNetCore.Diagnostics.ExceptionHandlerMiddleware.Invoke(HttpContext context) ADDITIONALDATA: (null) EXCEPTION: CLIENTIP:(null) HOSTIP:(null) REQUESTIDENTIFIER:(null) SESSIONIDENTIFIER:(null) 
2019-06-04 15:44:58.375 ERROR 67 RTTController.Core.API.Middleware.ExceptionMiddlewareExtensions DIAGNOSTICCONTEXT:(null) MESSAGE:Something went wrong: URL /api/game/update/   
 System.InvalidOperationException: Incorrect Content-Type: 
   at Microsoft.AspNetCore.Http.Features.FormFeature.ReadForm()
   at Microsoft.AspNetCore.Http.Internal.DefaultHttpRequest.get_Form()
   at RTTController.Core.API.Controllers.GamePlanController.UpdateGame() in D:\Sandeep\Projects\RTTController\RTTController\RTTController.Core.API\Controllers\GamePlanController.cs:line 172
   at Microsoft.AspNetCore.Mvc.Internal.ActionMethodExecutor.TaskOfIActionResultExecutor.Execute(IActionResultTypeMapper mapper, ObjectMethodExecutor executor, Object controller, Object[] arguments)
   at System.Threading.Tasks.ValueTask`1.get_Result()
   at Microsoft.AspNetCore.Mvc.Internal.ControllerActionInvoker.InvokeActionMethodAsync()
   at Microsoft.AspNetCore.Mvc.Internal.ControllerActionInvoker.InvokeNextActionFilterAsync()
   at Microsoft.AspNetCore.Mvc.Internal.ControllerActionInvoker.Rethrow(ActionExecutedContext context)
   at Microsoft.AspNetCore.Mvc.Internal.ControllerActionInvoker.Next(State& next, Scope& scope, Object& state, Boolean& isCompleted)
   at Microsoft.AspNetCore.Mvc.Internal.ControllerActionInvoker.InvokeInnerFilterAsync()
   at Microsoft.AspNetCore.Mvc.Internal.ResourceInvoker.InvokeNextResourceFilter()
   at Microsoft.AspNetCore.Mvc.Internal.ResourceInvoker.Rethrow(ResourceExecutedContext context)
   at Microsoft.AspNetCore.Mvc.Internal.ResourceInvoker.Next(State& next, Scope& scope, Object& state, Boolean& isCompleted)
   at Microsoft.AspNetCore.Mvc.Internal.ResourceInvoker.InvokeFilterPipelineAsync()
   at Microsoft.AspNetCore.Mvc.Internal.ResourceInvoker.InvokeAsync()
   at Microsoft.AspNetCore.Routing.EndpointMiddleware.Invoke(HttpContext httpContext)
   at Microsoft.AspNetCore.Routing.EndpointRoutingMiddleware.Invoke(HttpContext httpContext)
   at Microsoft.AspNetCore.Diagnostics.ExceptionHandlerMiddleware.Invoke(HttpContext context) ADDITIONALDATA: (null) EXCEPTION: CLIENTIP:(null) HOSTIP:(null) REQUESTIDENTIFIER:(null) SESSIONIDENTIFIER:(null) 
2019-06-04 15:47:28.173 INFO  77 RTTController.Core.API.Controllers.UserController DIAGNOSTICCONTEXT:(null) MESSAGE:Authenticate User Request:{"Username":"jsingh@ex2india.com","Password":"password123"} ADDITIONALDATA: (null) EXCEPTION: CLIENTIP:(null) HOSTIP:(null) REQUESTIDENTIFIER:(null) SESSIONIDENTIFIER:(null) 
2019-06-04 15:48:03.614 INFO  73 RTTController.Services.Services.CloudService DIAGNOSTICCONTEXT:(null) MESSAGE:AWS File Upload response{"Expiration":null,"ServerSideEncryptionMethod":null,"ETag":"\"f00f8697d43a00d36f60fa2b09eceb37\"","VersionId":null,"ServerSideEncryptionKeyManagementServiceKeyId":null,"RequestCharged":null,"ResponseMetadata":{"RequestId":"F9233A201BC558B8","Metadata":{"x-amz-id-2":"7tsI+4VcAMYiVEbiCXZkODmQ6shutMMxWp+zIPi7C0hN4+NgAOWeP9QZLXai9PAXZlHd0P0MTCs="}},"ContentLength":0,"HttpStatusCode":200} ADDITIONALDATA: (null) EXCEPTION: CLIENTIP:(null) HOSTIP:(null) REQUESTIDENTIFIER:(null) SESSIONIDENTIFIER:(null) 
2019-06-04 15:48:10.264 ERROR 73 RTTController.Core.API.Middleware.ExceptionMiddlewareExtensions DIAGNOSTICCONTEXT:(null) MESSAGE:Something went wrong: URL /api/game/update   
 System.NullReferenceException: Object reference not set to an instance of an object.
   at RTTController.Services.Services.GameService.UpdateGame(GamePlanRequest request) in D:\Sandeep\Projects\RTTController\RTTController\RTTController.Services\Services\GameService.cs:line 140
   at RTTController.Core.API.Controllers.GamePlanController.UpdateGame() in D:\Sandeep\Projects\RTTController\RTTController\RTTController.Core.API\Controllers\GamePlanController.cs:line 237
   at Microsoft.AspNetCore.Mvc.Internal.ActionMethodExecutor.TaskOfIActionResultExecutor.Execute(IActionResultTypeMapper mapper, ObjectMethodExecutor executor, Object controller, Object[] arguments)
   at System.Threading.Tasks.ValueTask`1.get_Result()
   at Microsoft.AspNetCore.Mvc.Internal.ControllerActionInvoker.InvokeActionMethodAsync()
   at Microsoft.AspNetCore.Mvc.Internal.ControllerActionInvoker.InvokeNextActionFilterAsync()
   at Microsoft.AspNetCore.Mvc.Internal.ControllerActionInvoker.Rethrow(ActionExecutedContext context)
   at Microsoft.AspNetCore.Mvc.Internal.ControllerActionInvoker.Next(State& next, Scope& scope, Object& state, Boolean& isCompleted)
   at Microsoft.AspNetCore.Mvc.Internal.ControllerActionInvoker.InvokeInnerFilterAsync()
   at Microsoft.AspNetCore.Mvc.Internal.ResourceInvoker.InvokeNextResourceFilter()
   at Microsoft.AspNetCore.Mvc.Internal.ResourceInvoker.Rethrow(ResourceExecutedContext context)
   at Microsoft.AspNetCore.Mvc.Internal.ResourceInvoker.Next(State& next, Scope& scope, Object& state, Boolean& isCompleted)
   at Microsoft.AspNetCore.Mvc.Internal.ResourceInvoker.InvokeFilterPipelineAsync()
   at Microsoft.AspNetCore.Mvc.Internal.ResourceInvoker.InvokeAsync()
   at Microsoft.AspNetCore.Routing.EndpointMiddleware.Invoke(HttpContext httpContext)
   at Microsoft.AspNetCore.Routing.EndpointRoutingMiddleware.Invoke(HttpContext httpContext)
   at Microsoft.AspNetCore.Diagnostics.ExceptionHandlerMiddleware.Invoke(HttpContext context) ADDITIONALDATA: (null) EXCEPTION: CLIENTIP:(null) HOSTIP:(null) REQUESTIDENTIFIER:(null) SESSIONIDENTIFIER:(null) 
2019-06-04 15:49:55.172 INFO  61 RTTController.Services.Services.CloudService DIAGNOSTICCONTEXT:(null) MESSAGE:AWS File Upload response{"Expiration":null,"ServerSideEncryptionMethod":null,"ETag":"\"648ddf374708a748f56f2af95388ec8a\"","VersionId":null,"ServerSideEncryptionKeyManagementServiceKeyId":null,"RequestCharged":null,"ResponseMetadata":{"RequestId":"5FE50611F19554EA","Metadata":{"x-amz-id-2":"JL64P/gHJDNvCk4CKWVOx+fqCrGU6NSVLTEB5dXfTkdypzrjkES7N6ery31K6NjwLq5cTp7jmP0="}},"ContentLength":0,"HttpStatusCode":200} ADDITIONALDATA: (null) EXCEPTION: CLIENTIP:(null) HOSTIP:(null) REQUESTIDENTIFIER:(null) SESSIONIDENTIFIER:(null) 
2019-06-04 15:51:00.204 ERROR 61 RTTController.Core.API.Middleware.ExceptionMiddlewareExtensions DIAGNOSTICCONTEXT:(null) MESSAGE:Something went wrong: URL /api/game/update   
 System.NullReferenceException: Object reference not set to an instance of an object.
   at RTTController.Services.Services.GameService.UpdateGame(GamePlanRequest request) in D:\Sandeep\Projects\RTTController\RTTController\RTTController.Services\Services\GameService.cs:line 140
   at RTTController.Core.API.Controllers.GamePlanController.UpdateGame() in D:\Sandeep\Projects\RTTController\RTTController\RTTController.Core.API\Controllers\GamePlanController.cs:line 237
   at Microsoft.AspNetCore.Mvc.Internal.ActionMethodExecutor.TaskOfIActionResultExecutor.Execute(IActionResultTypeMapper mapper, ObjectMethodExecutor executor, Object controller, Object[] arguments)
   at System.Threading.Tasks.ValueTask`1.get_Result()
   at Microsoft.AspNetCore.Mvc.Internal.ControllerActionInvoker.InvokeActionMethodAsync()
   at Microsoft.AspNetCore.Mvc.Internal.ControllerActionInvoker.InvokeNextActionFilterAsync()
   at Microsoft.AspNetCore.Mvc.Internal.ControllerActionInvoker.Rethrow(ActionExecutedContext context)
   at Microsoft.AspNetCore.Mvc.Internal.ControllerActionInvoker.Next(State& next, Scope& scope, Object& state, Boolean& isCompleted)
   at Microsoft.AspNetCore.Mvc.Internal.ControllerActionInvoker.InvokeInnerFilterAsync()
   at Microsoft.AspNetCore.Mvc.Internal.ResourceInvoker.InvokeNextResourceFilter()
   at Microsoft.AspNetCore.Mvc.Internal.ResourceInvoker.Rethrow(ResourceExecutedContext context)
   at Microsoft.AspNetCore.Mvc.Internal.ResourceInvoker.Next(State& next, Scope& scope, Object& state, Boolean& isCompleted)
   at Microsoft.AspNetCore.Mvc.Internal.ResourceInvoker.InvokeFilterPipelineAsync()
   at Microsoft.AspNetCore.Mvc.Internal.ResourceInvoker.InvokeAsync()
   at Microsoft.AspNetCore.Routing.EndpointMiddleware.Invoke(HttpContext httpContext)
   at Microsoft.AspNetCore.Routing.EndpointRoutingMiddleware.Invoke(HttpContext httpContext)
   at Microsoft.AspNetCore.Diagnostics.ExceptionHandlerMiddleware.Invoke(HttpContext context) ADDITIONALDATA: (null) EXCEPTION: CLIENTIP:(null) HOSTIP:(null) REQUESTIDENTIFIER:(null) SESSIONIDENTIFIER:(null) 
2019-06-04 15:52:48.772 INFO  26 RTTController.Services.Services.CloudService DIAGNOSTICCONTEXT:(null) MESSAGE:AWS File Upload response{"Expiration":null,"ServerSideEncryptionMethod":null,"ETag":"\"f00f8697d43a00d36f60fa2b09eceb37\"","VersionId":null,"ServerSideEncryptionKeyManagementServiceKeyId":null,"RequestCharged":null,"ResponseMetadata":{"RequestId":"73366C514B9FF94D","Metadata":{"x-amz-id-2":"hMAI0B/7Z36L3S6Cfj8BrY2laugEGBUfDiqUqQ0is7gR8UvkSJEVTNMS8M0b4OQo1sNEfww8/Po="}},"ContentLength":0,"HttpStatusCode":200} ADDITIONALDATA: (null) EXCEPTION: CLIENTIP:(null) HOSTIP:(null) REQUESTIDENTIFIER:(null) SESSIONIDENTIFIER:(null) 
2019-06-04 15:56:32.071 INFO  4 RTTController.Services.Services.CloudService DIAGNOSTICCONTEXT:(null) MESSAGE:AWS File Upload response{"Expiration":null,"ServerSideEncryptionMethod":null,"ETag":"\"cef372bd610c3bf3270cea01cf797697\"","VersionId":null,"ServerSideEncryptionKeyManagementServiceKeyId":null,"RequestCharged":null,"ResponseMetadata":{"RequestId":"E518B2871F2D068F","Metadata":{"x-amz-id-2":"OtRVPFlJ8EB/6Mt8MnSjfyXLQvk+cIeVBg0rOZTasaKEPSqy0+eQX2nSP6fBSYp5OrlFcsg+sGQ="}},"ContentLength":0,"HttpStatusCode":200} ADDITIONALDATA: (null) EXCEPTION: CLIENTIP:(null) HOSTIP:(null) REQUESTIDENTIFIER:(null) SESSIONIDENTIFIER:(null) 
2019-06-04 15:57:16.565 INFO  39 RTTController.Services.Services.CloudService DIAGNOSTICCONTEXT:(null) MESSAGE:AWS File Upload response{"Expiration":null,"ServerSideEncryptionMethod":null,"ETag":"\"04ba20837cb6f31f4152558fa33daee8\"","VersionId":null,"ServerSideEncryptionKeyManagementServiceKeyId":null,"RequestCharged":null,"ResponseMetadata":{"RequestId":"1A79169D15943350","Metadata":{"x-amz-id-2":"aRyXyT2LWWkMk1a2VPynzYzuXojIqZ8fEMPq+QmdoRdxYLE0DWkjBLRPy2LbyyYD/IYPdfNLdz0="}},"ContentLength":0,"HttpStatusCode":200} ADDITIONALDATA: (null) EXCEPTION: CLIENTIP:(null) HOSTIP:(null) REQUESTIDENTIFIER:(null) SESSIONIDENTIFIER:(null) 
2019-06-04 15:57:31.525 ERROR 39 RTTController.Core.API.Middleware.ExceptionMiddlewareExtensions DIAGNOSTICCONTEXT:(null) MESSAGE:Something went wrong: URL /api/game/update   
 System.NullReferenceException: Object reference not set to an instance of an object.
   at RTTController.Services.Services.GameService.UpdateGame(GamePlanRequest request) in D:\Sandeep\Projects\RTTController\RTTController\RTTController.Services\Services\GameService.cs:line 140
   at RTTController.Core.API.Controllers.GamePlanController.UpdateGame() in D:\Sandeep\Projects\RTTController\RTTController\RTTController.Core.API\Controllers\GamePlanController.cs:line 237
   at Microsoft.AspNetCore.Mvc.Internal.ActionMethodExecutor.TaskOfIActionResultExecutor.Execute(IActionResultTypeMapper mapper, ObjectMethodExecutor executor, Object controller, Object[] arguments)
   at System.Threading.Tasks.ValueTask`1.get_Result()
   at Microsoft.AspNetCore.Mvc.Internal.ControllerActionInvoker.InvokeActionMethodAsync()
   at Microsoft.AspNetCore.Mvc.Internal.ControllerActionInvoker.InvokeNextActionFilterAsync()
   at Microsoft.AspNetCore.Mvc.Internal.ControllerActionInvoker.Rethrow(ActionExecutedContext context)
   at Microsoft.AspNetCore.Mvc.Internal.ControllerActionInvoker.Next(State& next, Scope& scope, Object& state, Boolean& isCompleted)
   at Microsoft.AspNetCore.Mvc.Internal.ControllerActionInvoker.InvokeInnerFilterAsync()
   at Microsoft.AspNetCore.Mvc.Internal.ResourceInvoker.InvokeNextResourceFilter()
   at Microsoft.AspNetCore.Mvc.Internal.ResourceInvoker.Rethrow(ResourceExecutedContext context)
   at Microsoft.AspNetCore.Mvc.Internal.ResourceInvoker.Next(State& next, Scope& scope, Object& state, Boolean& isCompleted)
   at Microsoft.AspNetCore.Mvc.Internal.ResourceInvoker.InvokeFilterPipelineAsync()
   at Microsoft.AspNetCore.Mvc.Internal.ResourceInvoker.InvokeAsync()
   at Microsoft.AspNetCore.Routing.EndpointMiddleware.Invoke(HttpContext httpContext)
   at Microsoft.AspNetCore.Routing.EndpointRoutingMiddleware.Invoke(HttpContext httpContext)
   at Microsoft.AspNetCore.Diagnostics.ExceptionHandlerMiddleware.Invoke(HttpContext context) ADDITIONALDATA: (null) EXCEPTION: CLIENTIP:(null) HOSTIP:(null) REQUESTIDENTIFIER:(null) SESSIONIDENTIFIER:(null) 
2019-06-04 15:58:53.046 INFO  51 RTTController.Services.Services.CloudService DIAGNOSTICCONTEXT:(null) MESSAGE:AWS File Upload response{"Expiration":null,"ServerSideEncryptionMethod":null,"ETag":"\"04ba20837cb6f31f4152558fa33daee8\"","VersionId":null,"ServerSideEncryptionKeyManagementServiceKeyId":null,"RequestCharged":null,"ResponseMetadata":{"RequestId":"26609636360F886A","Metadata":{"x-amz-id-2":"hQolgf+hh29tGEwf/35rRzve/A3zyFLRzWy164BoAKTF0OfkXCBoUG5kTluxT5xHSKtIhgEVkOU="}},"ContentLength":0,"HttpStatusCode":200} ADDITIONALDATA: (null) EXCEPTION: CLIENTIP:(null) HOSTIP:(null) REQUESTIDENTIFIER:(null) SESSIONIDENTIFIER:(null) 
2019-06-04 15:58:56.218 ERROR 51 RTTController.Core.API.Middleware.ExceptionMiddlewareExtensions DIAGNOSTICCONTEXT:(null) MESSAGE:Something went wrong: URL /api/game/update   
 System.NullReferenceException: Object reference not set to an instance of an object.
   at RTTController.Services.Services.GameService.UpdateGame(GamePlanRequest request) in D:\Sandeep\Projects\RTTController\RTTController\RTTController.Services\Services\GameService.cs:line 140
   at RTTController.Core.API.Controllers.GamePlanController.UpdateGame() in D:\Sandeep\Projects\RTTController\RTTController\RTTController.Core.API\Controllers\GamePlanController.cs:line 237
   at Microsoft.AspNetCore.Mvc.Internal.ActionMethodExecutor.TaskOfIActionResultExecutor.Execute(IActionResultTypeMapper mapper, ObjectMethodExecutor executor, Object controller, Object[] arguments)
   at System.Threading.Tasks.ValueTask`1.get_Result()
   at Microsoft.AspNetCore.Mvc.Internal.ControllerActionInvoker.InvokeActionMethodAsync()
   at Microsoft.AspNetCore.Mvc.Internal.ControllerActionInvoker.InvokeNextActionFilterAsync()
   at Microsoft.AspNetCore.Mvc.Internal.ControllerActionInvoker.Rethrow(ActionExecutedContext context)
   at Microsoft.AspNetCore.Mvc.Internal.ControllerActionInvoker.Next(State& next, Scope& scope, Object& state, Boolean& isCompleted)
   at Microsoft.AspNetCore.Mvc.Internal.ControllerActionInvoker.InvokeInnerFilterAsync()
   at Microsoft.AspNetCore.Mvc.Internal.ResourceInvoker.InvokeNextResourceFilter()
   at Microsoft.AspNetCore.Mvc.Internal.ResourceInvoker.Rethrow(ResourceExecutedContext context)
   at Microsoft.AspNetCore.Mvc.Internal.ResourceInvoker.Next(State& next, Scope& scope, Object& state, Boolean& isCompleted)
   at Microsoft.AspNetCore.Mvc.Internal.ResourceInvoker.InvokeFilterPipelineAsync()
   at Microsoft.AspNetCore.Mvc.Internal.ResourceInvoker.InvokeAsync()
   at Microsoft.AspNetCore.Routing.EndpointMiddleware.Invoke(HttpContext httpContext)
   at Microsoft.AspNetCore.Routing.EndpointRoutingMiddleware.Invoke(HttpContext httpContext)
   at Microsoft.AspNetCore.Diagnostics.ExceptionHandlerMiddleware.Invoke(HttpContext context) ADDITIONALDATA: (null) EXCEPTION: CLIENTIP:(null) HOSTIP:(null) REQUESTIDENTIFIER:(null) SESSIONIDENTIFIER:(null) 
2019-06-04 16:00:28.796 INFO  51 RTTController.Services.Services.CloudService DIAGNOSTICCONTEXT:(null) MESSAGE:AWS File Upload response{"Expiration":null,"ServerSideEncryptionMethod":null,"ETag":"\"c470e2f27ee40d3c0cd82b5c2ea0e863\"","VersionId":null,"ServerSideEncryptionKeyManagementServiceKeyId":null,"RequestCharged":null,"ResponseMetadata":{"RequestId":"7EB67585F3F88F68","Metadata":{"x-amz-id-2":"04de/CSOXosFrwgkWPJpVqb3vZtBssG/nIZaegPc2xxZlfY7NgxGPgFprnkqmwKnUK/bCldBM4U="}},"ContentLength":0,"HttpStatusCode":200} ADDITIONALDATA: (null) EXCEPTION: CLIENTIP:(null) HOSTIP:(null) REQUESTIDENTIFIER:(null) SESSIONIDENTIFIER:(null) 
2019-06-04 16:00:31.449 ERROR 51 RTTController.Core.API.Middleware.ExceptionMiddlewareExtensions DIAGNOSTICCONTEXT:(null) MESSAGE:Something went wrong: URL /api/game/update   
 System.NullReferenceException: Object reference not set to an instance of an object.
   at RTTController.Services.Services.GameService.UpdateGame(GamePlanRequest request) in D:\Sandeep\Projects\RTTController\RTTController\RTTController.Services\Services\GameService.cs:line 140
   at RTTController.Core.API.Controllers.GamePlanController.UpdateGame() in D:\Sandeep\Projects\RTTController\RTTController\RTTController.Core.API\Controllers\GamePlanController.cs:line 237
   at Microsoft.AspNetCore.Mvc.Internal.ActionMethodExecutor.TaskOfIActionResultExecutor.Execute(IActionResultTypeMapper mapper, ObjectMethodExecutor executor, Object controller, Object[] arguments)
   at System.Threading.Tasks.ValueTask`1.get_Result()
   at Microsoft.AspNetCore.Mvc.Internal.ControllerActionInvoker.InvokeActionMethodAsync()
   at Microsoft.AspNetCore.Mvc.Internal.ControllerActionInvoker.InvokeNextActionFilterAsync()
   at Microsoft.AspNetCore.Mvc.Internal.ControllerActionInvoker.Rethrow(ActionExecutedContext context)
   at Microsoft.AspNetCore.Mvc.Internal.ControllerActionInvoker.Next(State& next, Scope& scope, Object& state, Boolean& isCompleted)
   at Microsoft.AspNetCore.Mvc.Internal.ControllerActionInvoker.InvokeInnerFilterAsync()
   at Microsoft.AspNetCore.Mvc.Internal.ResourceInvoker.InvokeNextResourceFilter()
   at Microsoft.AspNetCore.Mvc.Internal.ResourceInvoker.Rethrow(ResourceExecutedContext context)
   at Microsoft.AspNetCore.Mvc.Internal.ResourceInvoker.Next(State& next, Scope& scope, Object& state, Boolean& isCompleted)
   at Microsoft.AspNetCore.Mvc.Internal.ResourceInvoker.InvokeFilterPipelineAsync()
   at Microsoft.AspNetCore.Mvc.Internal.ResourceInvoker.InvokeAsync()
   at Microsoft.AspNetCore.Routing.EndpointMiddleware.Invoke(HttpContext httpContext)
   at Microsoft.AspNetCore.Routing.EndpointRoutingMiddleware.Invoke(HttpContext httpContext)
   at Microsoft.AspNetCore.Diagnostics.ExceptionHandlerMiddleware.Invoke(HttpContext context) ADDITIONALDATA: (null) EXCEPTION: CLIENTIP:(null) HOSTIP:(null) REQUESTIDENTIFIER:(null) SESSIONIDENTIFIER:(null) 
2019-06-04 16:01:39.339 INFO  51 RTTController.Services.Services.CloudService DIAGNOSTICCONTEXT:(null) MESSAGE:AWS File Upload response{"Expiration":null,"ServerSideEncryptionMethod":null,"ETag":"\"45a93da1d83c4a4b4a571f9bcbb3c8e6\"","VersionId":null,"ServerSideEncryptionKeyManagementServiceKeyId":null,"RequestCharged":null,"ResponseMetadata":{"RequestId":"1F8F46C00B46EA37","Metadata":{"x-amz-id-2":"hyCRuVw4ZOtHb5ZaSkNYgHq74766FqUtHbJsIoVEBXgZTseFaPluKjD/zOnKuVDUoFG3zvlNfgM="}},"ContentLength":0,"HttpStatusCode":200} ADDITIONALDATA: (null) EXCEPTION: CLIENTIP:(null) HOSTIP:(null) REQUESTIDENTIFIER:(null) SESSIONIDENTIFIER:(null) 
2019-06-04 16:01:41.271 ERROR 51 RTTController.Core.API.Middleware.ExceptionMiddlewareExtensions DIAGNOSTICCONTEXT:(null) MESSAGE:Something went wrong: URL /api/game/update   
 System.NullReferenceException: Object reference not set to an instance of an object.
   at RTTController.Services.Services.GameService.UpdateGame(GamePlanRequest request) in D:\Sandeep\Projects\RTTController\RTTController\RTTController.Services\Services\GameService.cs:line 140
   at RTTController.Core.API.Controllers.GamePlanController.UpdateGame() in D:\Sandeep\Projects\RTTController\RTTController\RTTController.Core.API\Controllers\GamePlanController.cs:line 237
   at Microsoft.AspNetCore.Mvc.Internal.ActionMethodExecutor.TaskOfIActionResultExecutor.Execute(IActionResultTypeMapper mapper, ObjectMethodExecutor executor, Object controller, Object[] arguments)
   at System.Threading.Tasks.ValueTask`1.get_Result()
   at Microsoft.AspNetCore.Mvc.Internal.ControllerActionInvoker.InvokeActionMethodAsync()
   at Microsoft.AspNetCore.Mvc.Internal.ControllerActionInvoker.InvokeNextActionFilterAsync()
   at Microsoft.AspNetCore.Mvc.Internal.ControllerActionInvoker.Rethrow(ActionExecutedContext context)
   at Microsoft.AspNetCore.Mvc.Internal.ControllerActionInvoker.Next(State& next, Scope& scope, Object& state, Boolean& isCompleted)
   at Microsoft.AspNetCore.Mvc.Internal.ControllerActionInvoker.InvokeInnerFilterAsync()
   at Microsoft.AspNetCore.Mvc.Internal.ResourceInvoker.InvokeNextResourceFilter()
   at Microsoft.AspNetCore.Mvc.Internal.ResourceInvoker.Rethrow(ResourceExecutedContext context)
   at Microsoft.AspNetCore.Mvc.Internal.ResourceInvoker.Next(State& next, Scope& scope, Object& state, Boolean& isCompleted)
   at Microsoft.AspNetCore.Mvc.Internal.ResourceInvoker.InvokeFilterPipelineAsync()
   at Microsoft.AspNetCore.Mvc.Internal.ResourceInvoker.InvokeAsync()
   at Microsoft.AspNetCore.Routing.EndpointMiddleware.Invoke(HttpContext httpContext)
   at Microsoft.AspNetCore.Routing.EndpointRoutingMiddleware.Invoke(HttpContext httpContext)
   at Microsoft.AspNetCore.Diagnostics.ExceptionHandlerMiddleware.Invoke(HttpContext context) ADDITIONALDATA: (null) EXCEPTION: CLIENTIP:(null) HOSTIP:(null) REQUESTIDENTIFIER:(null) SESSIONIDENTIFIER:(null) 
2019-06-04 16:03:02.532 INFO  51 RTTController.Services.Services.CloudService DIAGNOSTICCONTEXT:(null) MESSAGE:AWS File Upload response{"Expiration":null,"ServerSideEncryptionMethod":null,"ETag":"\"58571edddabb69687628260dc5b6dcac\"","VersionId":null,"ServerSideEncryptionKeyManagementServiceKeyId":null,"RequestCharged":null,"ResponseMetadata":{"RequestId":"EE967B0385B67A48","Metadata":{"x-amz-id-2":"e6hjodg0uKzqA0C38cpV2HP9qC4OIWz5appULSQDzl0JAuuLon1z1SSSnYnEY98VFBax1G8jm20="}},"ContentLength":0,"HttpStatusCode":200} ADDITIONALDATA: (null) EXCEPTION: CLIENTIP:(null) HOSTIP:(null) REQUESTIDENTIFIER:(null) SESSIONIDENTIFIER:(null) 
2019-06-04 16:03:03.996 ERROR 51 RTTController.Core.API.Middleware.ExceptionMiddlewareExtensions DIAGNOSTICCONTEXT:(null) MESSAGE:Something went wrong: URL /api/game/update   
 System.NullReferenceException: Object reference not set to an instance of an object.
   at RTTController.Services.Services.GameService.UpdateGame(GamePlanRequest request) in D:\Sandeep\Projects\RTTController\RTTController\RTTController.Services\Services\GameService.cs:line 140
   at RTTController.Core.API.Controllers.GamePlanController.UpdateGame() in D:\Sandeep\Projects\RTTController\RTTController\RTTController.Core.API\Controllers\GamePlanController.cs:line 237
   at Microsoft.AspNetCore.Mvc.Internal.ActionMethodExecutor.TaskOfIActionResultExecutor.Execute(IActionResultTypeMapper mapper, ObjectMethodExecutor executor, Object controller, Object[] arguments)
   at System.Threading.Tasks.ValueTask`1.get_Result()
   at Microsoft.AspNetCore.Mvc.Internal.ControllerActionInvoker.InvokeActionMethodAsync()
   at Microsoft.AspNetCore.Mvc.Internal.ControllerActionInvoker.InvokeNextActionFilterAsync()
   at Microsoft.AspNetCore.Mvc.Internal.ControllerActionInvoker.Rethrow(ActionExecutedContext context)
   at Microsoft.AspNetCore.Mvc.Internal.ControllerActionInvoker.Next(State& next, Scope& scope, Object& state, Boolean& isCompleted)
   at Microsoft.AspNetCore.Mvc.Internal.ControllerActionInvoker.InvokeInnerFilterAsync()
   at Microsoft.AspNetCore.Mvc.Internal.ResourceInvoker.InvokeNextResourceFilter()
   at Microsoft.AspNetCore.Mvc.Internal.ResourceInvoker.Rethrow(ResourceExecutedContext context)
   at Microsoft.AspNetCore.Mvc.Internal.ResourceInvoker.Next(State& next, Scope& scope, Object& state, Boolean& isCompleted)
   at Microsoft.AspNetCore.Mvc.Internal.ResourceInvoker.InvokeFilterPipelineAsync()
   at Microsoft.AspNetCore.Mvc.Internal.ResourceInvoker.InvokeAsync()
   at Microsoft.AspNetCore.Routing.EndpointMiddleware.Invoke(HttpContext httpContext)
   at Microsoft.AspNetCore.Routing.EndpointRoutingMiddleware.Invoke(HttpContext httpContext)
   at Microsoft.AspNetCore.Diagnostics.ExceptionHandlerMiddleware.Invoke(HttpContext context) ADDITIONALDATA: (null) EXCEPTION: CLIENTIP:(null) HOSTIP:(null) REQUESTIDENTIFIER:(null) SESSIONIDENTIFIER:(null) 
2019-06-04 16:03:53.829 INFO  51 RTTController.Services.Services.CloudService DIAGNOSTICCONTEXT:(null) MESSAGE:AWS File Upload response{"Expiration":null,"ServerSideEncryptionMethod":null,"ETag":"\"04ba20837cb6f31f4152558fa33daee8\"","VersionId":null,"ServerSideEncryptionKeyManagementServiceKeyId":null,"RequestCharged":null,"ResponseMetadata":{"RequestId":"A835E79A54F6D513","Metadata":{"x-amz-id-2":"PtGhQ9zxAWMTBsdqfFNvk7jCr8pBy4/s3VmDwgfHpb56hEPT+hDsnW0Z0VN3kX2BQHtg5kDSupM="}},"ContentLength":0,"HttpStatusCode":200} ADDITIONALDATA: (null) EXCEPTION: CLIENTIP:(null) HOSTIP:(null) REQUESTIDENTIFIER:(null) SESSIONIDENTIFIER:(null) 
2019-06-04 16:03:56.941 ERROR 51 RTTController.Core.API.Middleware.ExceptionMiddlewareExtensions DIAGNOSTICCONTEXT:(null) MESSAGE:Something went wrong: URL /api/game/update   
 System.NullReferenceException: Object reference not set to an instance of an object.
   at RTTController.Services.Services.GameService.UpdateGame(GamePlanRequest request) in D:\Sandeep\Projects\RTTController\RTTController\RTTController.Services\Services\GameService.cs:line 140
   at RTTController.Core.API.Controllers.GamePlanController.UpdateGame() in D:\Sandeep\Projects\RTTController\RTTController\RTTController.Core.API\Controllers\GamePlanController.cs:line 237
   at Microsoft.AspNetCore.Mvc.Internal.ActionMethodExecutor.TaskOfIActionResultExecutor.Execute(IActionResultTypeMapper mapper, ObjectMethodExecutor executor, Object controller, Object[] arguments)
   at System.Threading.Tasks.ValueTask`1.get_Result()
   at Microsoft.AspNetCore.Mvc.Internal.ControllerActionInvoker.InvokeActionMethodAsync()
   at Microsoft.AspNetCore.Mvc.Internal.ControllerActionInvoker.InvokeNextActionFilterAsync()
   at Microsoft.AspNetCore.Mvc.Internal.ControllerActionInvoker.Rethrow(ActionExecutedContext context)
   at Microsoft.AspNetCore.Mvc.Internal.ControllerActionInvoker.Next(State& next, Scope& scope, Object& state, Boolean& isCompleted)
   at Microsoft.AspNetCore.Mvc.Internal.ControllerActionInvoker.InvokeInnerFilterAsync()
   at Microsoft.AspNetCore.Mvc.Internal.ResourceInvoker.InvokeNextResourceFilter()
   at Microsoft.AspNetCore.Mvc.Internal.ResourceInvoker.Rethrow(ResourceExecutedContext context)
   at Microsoft.AspNetCore.Mvc.Internal.ResourceInvoker.Next(State& next, Scope& scope, Object& state, Boolean& isCompleted)
   at Microsoft.AspNetCore.Mvc.Internal.ResourceInvoker.InvokeFilterPipelineAsync()
   at Microsoft.AspNetCore.Mvc.Internal.ResourceInvoker.InvokeAsync()
   at Microsoft.AspNetCore.Routing.EndpointMiddleware.Invoke(HttpContext httpContext)
   at Microsoft.AspNetCore.Routing.EndpointRoutingMiddleware.Invoke(HttpContext httpContext)
   at Microsoft.AspNetCore.Diagnostics.ExceptionHandlerMiddleware.Invoke(HttpContext context) ADDITIONALDATA: (null) EXCEPTION: CLIENTIP:(null) HOSTIP:(null) REQUESTIDENTIFIER:(null) SESSIONIDENTIFIER:(null) 
2019-06-04 16:04:49.325 INFO  51 RTTController.Services.Services.CloudService DIAGNOSTICCONTEXT:(null) MESSAGE:AWS File Upload response{"Expiration":null,"ServerSideEncryptionMethod":null,"ETag":"\"f00f8697d43a00d36f60fa2b09eceb37\"","VersionId":null,"ServerSideEncryptionKeyManagementServiceKeyId":null,"RequestCharged":null,"ResponseMetadata":{"RequestId":"3871B04144D13E29","Metadata":{"x-amz-id-2":"m08FFa6fOFDitEyjZ3fozDTM+zqUjejQkt6gBt5JcRZi+qL+VtkZmAB9TpYO0JSEBa7K2gqKSWs="}},"ContentLength":0,"HttpStatusCode":200} ADDITIONALDATA: (null) EXCEPTION: CLIENTIP:(null) HOSTIP:(null) REQUESTIDENTIFIER:(null) SESSIONIDENTIFIER:(null) 
2019-06-04 16:04:51.843 ERROR 51 RTTController.Core.API.Middleware.ExceptionMiddlewareExtensions DIAGNOSTICCONTEXT:(null) MESSAGE:Something went wrong: URL /api/game/update   
 System.NullReferenceException: Object reference not set to an instance of an object.
   at RTTController.Services.Services.GameService.UpdateGame(GamePlanRequest request) in D:\Sandeep\Projects\RTTController\RTTController\RTTController.Services\Services\GameService.cs:line 140
   at RTTController.Core.API.Controllers.GamePlanController.UpdateGame() in D:\Sandeep\Projects\RTTController\RTTController\RTTController.Core.API\Controllers\GamePlanController.cs:line 237
   at Microsoft.AspNetCore.Mvc.Internal.ActionMethodExecutor.TaskOfIActionResultExecutor.Execute(IActionResultTypeMapper mapper, ObjectMethodExecutor executor, Object controller, Object[] arguments)
   at System.Threading.Tasks.ValueTask`1.get_Result()
   at Microsoft.AspNetCore.Mvc.Internal.ControllerActionInvoker.InvokeActionMethodAsync()
   at Microsoft.AspNetCore.Mvc.Internal.ControllerActionInvoker.InvokeNextActionFilterAsync()
   at Microsoft.AspNetCore.Mvc.Internal.ControllerActionInvoker.Rethrow(ActionExecutedContext context)
   at Microsoft.AspNetCore.Mvc.Internal.ControllerActionInvoker.Next(State& next, Scope& scope, Object& state, Boolean& isCompleted)
   at Microsoft.AspNetCore.Mvc.Internal.ControllerActionInvoker.InvokeInnerFilterAsync()
   at Microsoft.AspNetCore.Mvc.Internal.ResourceInvoker.InvokeNextResourceFilter()
   at Microsoft.AspNetCore.Mvc.Internal.ResourceInvoker.Rethrow(ResourceExecutedContext context)
   at Microsoft.AspNetCore.Mvc.Internal.ResourceInvoker.Next(State& next, Scope& scope, Object& state, Boolean& isCompleted)
   at Microsoft.AspNetCore.Mvc.Internal.ResourceInvoker.InvokeFilterPipelineAsync()
   at Microsoft.AspNetCore.Mvc.Internal.ResourceInvoker.InvokeAsync()
   at Microsoft.AspNetCore.Routing.EndpointMiddleware.Invoke(HttpContext httpContext)
   at Microsoft.AspNetCore.Routing.EndpointRoutingMiddleware.Invoke(HttpContext httpContext)
   at Microsoft.AspNetCore.Diagnostics.ExceptionHandlerMiddleware.Invoke(HttpContext context) ADDITIONALDATA: (null) EXCEPTION: CLIENTIP:(null) HOSTIP:(null) REQUESTIDENTIFIER:(null) SESSIONIDENTIFIER:(null) 
2019-06-04 16:05:47.905 INFO  81 RTTController.Services.Services.CloudService DIAGNOSTICCONTEXT:(null) MESSAGE:AWS File Upload response{"Expiration":null,"ServerSideEncryptionMethod":null,"ETag":"\"cef372bd610c3bf3270cea01cf797697\"","VersionId":null,"ServerSideEncryptionKeyManagementServiceKeyId":null,"RequestCharged":null,"ResponseMetadata":{"RequestId":"8C63009E03F92096","Metadata":{"x-amz-id-2":"dzYW28Y7gqH+fak5p4Xbjsxk6RN4upoeVezku5rthXXGeRBv89iFqf5Qzocw2PipDoznjH3DPuM="}},"ContentLength":0,"HttpStatusCode":200} ADDITIONALDATA: (null) EXCEPTION: CLIENTIP:(null) HOSTIP:(null) REQUESTIDENTIFIER:(null) SESSIONIDENTIFIER:(null) 
2019-06-04 16:05:50.586 ERROR 81 RTTController.Core.API.Middleware.ExceptionMiddlewareExtensions DIAGNOSTICCONTEXT:(null) MESSAGE:Something went wrong: URL /api/game/update   
 System.NullReferenceException: Object reference not set to an instance of an object.
   at RTTController.Services.Services.GameService.UpdateGame(GamePlanRequest request) in D:\Sandeep\Projects\RTTController\RTTController\RTTController.Services\Services\GameService.cs:line 140
   at RTTController.Core.API.Controllers.GamePlanController.UpdateGame() in D:\Sandeep\Projects\RTTController\RTTController\RTTController.Core.API\Controllers\GamePlanController.cs:line 237
   at Microsoft.AspNetCore.Mvc.Internal.ActionMethodExecutor.TaskOfIActionResultExecutor.Execute(IActionResultTypeMapper mapper, ObjectMethodExecutor executor, Object controller, Object[] arguments)
   at System.Threading.Tasks.ValueTask`1.get_Result()
   at Microsoft.AspNetCore.Mvc.Internal.ControllerActionInvoker.InvokeActionMethodAsync()
   at Microsoft.AspNetCore.Mvc.Internal.ControllerActionInvoker.InvokeNextActionFilterAsync()
   at Microsoft.AspNetCore.Mvc.Internal.ControllerActionInvoker.Rethrow(ActionExecutedContext context)
   at Microsoft.AspNetCore.Mvc.Internal.ControllerActionInvoker.Next(State& next, Scope& scope, Object& state, Boolean& isCompleted)
   at Microsoft.AspNetCore.Mvc.Internal.ControllerActionInvoker.InvokeInnerFilterAsync()
   at Microsoft.AspNetCore.Mvc.Internal.ResourceInvoker.InvokeNextResourceFilter()
   at Microsoft.AspNetCore.Mvc.Internal.ResourceInvoker.Rethrow(ResourceExecutedContext context)
   at Microsoft.AspNetCore.Mvc.Internal.ResourceInvoker.Next(State& next, Scope& scope, Object& state, Boolean& isCompleted)
   at Microsoft.AspNetCore.Mvc.Internal.ResourceInvoker.InvokeFilterPipelineAsync()
   at Microsoft.AspNetCore.Mvc.Internal.ResourceInvoker.InvokeAsync()
   at Microsoft.AspNetCore.Routing.EndpointMiddleware.Invoke(HttpContext httpContext)
   at Microsoft.AspNetCore.Routing.EndpointRoutingMiddleware.Invoke(HttpContext httpContext)
   at Microsoft.AspNetCore.Diagnostics.ExceptionHandlerMiddleware.Invoke(HttpContext context) ADDITIONALDATA: (null) EXCEPTION: CLIENTIP:(null) HOSTIP:(null) REQUESTIDENTIFIER:(null) SESSIONIDENTIFIER:(null) 
2019-06-04 16:06:26.657 INFO  84 RTTController.Services.Services.CloudService DIAGNOSTICCONTEXT:(null) MESSAGE:AWS File Upload response{"Expiration":null,"ServerSideEncryptionMethod":null,"ETag":"\"04ba20837cb6f31f4152558fa33daee8\"","VersionId":null,"ServerSideEncryptionKeyManagementServiceKeyId":null,"RequestCharged":null,"ResponseMetadata":{"RequestId":"5A280BA322086F2D","Metadata":{"x-amz-id-2":"63FR3l4OpBDKE4zo6pHckQanpbDG5jnsvcx1JdUhcisXNdWzQKANP+lq5CEXZQNuji2H2wjQA4Q="}},"ContentLength":0,"HttpStatusCode":200} ADDITIONALDATA: (null) EXCEPTION: CLIENTIP:(null) HOSTIP:(null) REQUESTIDENTIFIER:(null) SESSIONIDENTIFIER:(null) 
2019-06-04 16:06:30.263 ERROR 84 RTTController.Core.API.Middleware.ExceptionMiddlewareExtensions DIAGNOSTICCONTEXT:(null) MESSAGE:Something went wrong: URL /api/game/update   
 System.NullReferenceException: Object reference not set to an instance of an object.
   at RTTController.Services.Services.GameService.UpdateGame(GamePlanRequest request) in D:\Sandeep\Projects\RTTController\RTTController\RTTController.Services\Services\GameService.cs:line 140
   at RTTController.Core.API.Controllers.GamePlanController.UpdateGame() in D:\Sandeep\Projects\RTTController\RTTController\RTTController.Core.API\Controllers\GamePlanController.cs:line 237
   at Microsoft.AspNetCore.Mvc.Internal.ActionMethodExecutor.TaskOfIActionResultExecutor.Execute(IActionResultTypeMapper mapper, ObjectMethodExecutor executor, Object controller, Object[] arguments)
   at System.Threading.Tasks.ValueTask`1.get_Result()
   at Microsoft.AspNetCore.Mvc.Internal.ControllerActionInvoker.InvokeActionMethodAsync()
   at Microsoft.AspNetCore.Mvc.Internal.ControllerActionInvoker.InvokeNextActionFilterAsync()
   at Microsoft.AspNetCore.Mvc.Internal.ControllerActionInvoker.Rethrow(ActionExecutedContext context)
   at Microsoft.AspNetCore.Mvc.Internal.ControllerActionInvoker.Next(State& next, Scope& scope, Object& state, Boolean& isCompleted)
   at Microsoft.AspNetCore.Mvc.Internal.ControllerActionInvoker.InvokeInnerFilterAsync()
   at Microsoft.AspNetCore.Mvc.Internal.ResourceInvoker.InvokeNextResourceFilter()
   at Microsoft.AspNetCore.Mvc.Internal.ResourceInvoker.Rethrow(ResourceExecutedContext context)
   at Microsoft.AspNetCore.Mvc.Internal.ResourceInvoker.Next(State& next, Scope& scope, Object& state, Boolean& isCompleted)
   at Microsoft.AspNetCore.Mvc.Internal.ResourceInvoker.InvokeFilterPipelineAsync()
   at Microsoft.AspNetCore.Mvc.Internal.ResourceInvoker.InvokeAsync()
   at Microsoft.AspNetCore.Routing.EndpointMiddleware.Invoke(HttpContext httpContext)
   at Microsoft.AspNetCore.Routing.EndpointRoutingMiddleware.Invoke(HttpContext httpContext)
   at Microsoft.AspNetCore.Diagnostics.ExceptionHandlerMiddleware.Invoke(HttpContext context) ADDITIONALDATA: (null) EXCEPTION: CLIENTIP:(null) HOSTIP:(null) REQUESTIDENTIFIER:(null) SESSIONIDENTIFIER:(null) 
2019-06-04 16:08:23.112 INFO  84 RTTController.Services.Services.CloudService DIAGNOSTICCONTEXT:(null) MESSAGE:AWS File Upload response{"Expiration":null,"ServerSideEncryptionMethod":null,"ETag":"\"1eaa6f29e63e74259fa90e7f098a98e2\"","VersionId":null,"ServerSideEncryptionKeyManagementServiceKeyId":null,"RequestCharged":null,"ResponseMetadata":{"RequestId":"AA349B1664BDE09C","Metadata":{"x-amz-id-2":"ta1I8ixEiaCZQP/8U0N9ooMN7KBJ5t21nWUFLeaqOhpgR+Ze+th7zMSouRbUkW9//rnlVUaOjkw="}},"ContentLength":0,"HttpStatusCode":200} ADDITIONALDATA: (null) EXCEPTION: CLIENTIP:(null) HOSTIP:(null) REQUESTIDENTIFIER:(null) SESSIONIDENTIFIER:(null) 
2019-06-04 16:08:25.809 ERROR 84 RTTController.Core.API.Middleware.ExceptionMiddlewareExtensions DIAGNOSTICCONTEXT:(null) MESSAGE:Something went wrong: URL /api/game/update   
 System.NullReferenceException: Object reference not set to an instance of an object.
   at RTTController.Services.Services.GameService.UpdateGame(GamePlanRequest request) in D:\Sandeep\Projects\RTTController\RTTController\RTTController.Services\Services\GameService.cs:line 140
   at RTTController.Core.API.Controllers.GamePlanController.UpdateGame() in D:\Sandeep\Projects\RTTController\RTTController\RTTController.Core.API\Controllers\GamePlanController.cs:line 237
   at Microsoft.AspNetCore.Mvc.Internal.ActionMethodExecutor.TaskOfIActionResultExecutor.Execute(IActionResultTypeMapper mapper, ObjectMethodExecutor executor, Object controller, Object[] arguments)
   at System.Threading.Tasks.ValueTask`1.get_Result()
   at Microsoft.AspNetCore.Mvc.Internal.ControllerActionInvoker.InvokeActionMethodAsync()
   at Microsoft.AspNetCore.Mvc.Internal.ControllerActionInvoker.InvokeNextActionFilterAsync()
   at Microsoft.AspNetCore.Mvc.Internal.ControllerActionInvoker.Rethrow(ActionExecutedContext context)
   at Microsoft.AspNetCore.Mvc.Internal.ControllerActionInvoker.Next(State& next, Scope& scope, Object& state, Boolean& isCompleted)
   at Microsoft.AspNetCore.Mvc.Internal.ControllerActionInvoker.InvokeInnerFilterAsync()
   at Microsoft.AspNetCore.Mvc.Internal.ResourceInvoker.InvokeNextResourceFilter()
   at Microsoft.AspNetCore.Mvc.Internal.ResourceInvoker.Rethrow(ResourceExecutedContext context)
   at Microsoft.AspNetCore.Mvc.Internal.ResourceInvoker.Next(State& next, Scope& scope, Object& state, Boolean& isCompleted)
   at Microsoft.AspNetCore.Mvc.Internal.ResourceInvoker.InvokeFilterPipelineAsync()
   at Microsoft.AspNetCore.Mvc.Internal.ResourceInvoker.InvokeAsync()
   at Microsoft.AspNetCore.Routing.EndpointMiddleware.Invoke(HttpContext httpContext)
   at Microsoft.AspNetCore.Routing.EndpointRoutingMiddleware.Invoke(HttpContext httpContext)
   at Microsoft.AspNetCore.Diagnostics.ExceptionHandlerMiddleware.Invoke(HttpContext context) ADDITIONALDATA: (null) EXCEPTION: CLIENTIP:(null) HOSTIP:(null) REQUESTIDENTIFIER:(null) SESSIONIDENTIFIER:(null) 
2019-06-04 16:09:04.717 INFO  84 RTTController.Services.Services.CloudService DIAGNOSTICCONTEXT:(null) MESSAGE:AWS File Upload response{"Expiration":null,"ServerSideEncryptionMethod":null,"ETag":"\"04ba20837cb6f31f4152558fa33daee8\"","VersionId":null,"ServerSideEncryptionKeyManagementServiceKeyId":null,"RequestCharged":null,"ResponseMetadata":{"RequestId":"8BDF76159F2F1D6F","Metadata":{"x-amz-id-2":"MwYy3uz9BILRhIC/icXbJW96UmpG9Mv5j7jHwoge19IN2sBjP0hSaexon0dOtzvH1XVQKwkgbSQ="}},"ContentLength":0,"HttpStatusCode":200} ADDITIONALDATA: (null) EXCEPTION: CLIENTIP:(null) HOSTIP:(null) REQUESTIDENTIFIER:(null) SESSIONIDENTIFIER:(null) 
2019-06-04 16:09:07.947 ERROR 84 RTTController.Core.API.Middleware.ExceptionMiddlewareExtensions DIAGNOSTICCONTEXT:(null) MESSAGE:Something went wrong: URL /api/game/update   
 System.NullReferenceException: Object reference not set to an instance of an object.
   at RTTController.Services.Services.GameService.UpdateGame(GamePlanRequest request) in D:\Sandeep\Projects\RTTController\RTTController\RTTController.Services\Services\GameService.cs:line 140
   at RTTController.Core.API.Controllers.GamePlanController.UpdateGame() in D:\Sandeep\Projects\RTTController\RTTController\RTTController.Core.API\Controllers\GamePlanController.cs:line 237
   at Microsoft.AspNetCore.Mvc.Internal.ActionMethodExecutor.TaskOfIActionResultExecutor.Execute(IActionResultTypeMapper mapper, ObjectMethodExecutor executor, Object controller, Object[] arguments)
   at System.Threading.Tasks.ValueTask`1.get_Result()
   at Microsoft.AspNetCore.Mvc.Internal.ControllerActionInvoker.InvokeActionMethodAsync()
   at Microsoft.AspNetCore.Mvc.Internal.ControllerActionInvoker.InvokeNextActionFilterAsync()
   at Microsoft.AspNetCore.Mvc.Internal.ControllerActionInvoker.Rethrow(ActionExecutedContext context)
   at Microsoft.AspNetCore.Mvc.Internal.ControllerActionInvoker.Next(State& next, Scope& scope, Object& state, Boolean& isCompleted)
   at Microsoft.AspNetCore.Mvc.Internal.ControllerActionInvoker.InvokeInnerFilterAsync()
   at Microsoft.AspNetCore.Mvc.Internal.ResourceInvoker.InvokeNextResourceFilter()
   at Microsoft.AspNetCore.Mvc.Internal.ResourceInvoker.Rethrow(ResourceExecutedContext context)
   at Microsoft.AspNetCore.Mvc.Internal.ResourceInvoker.Next(State& next, Scope& scope, Object& state, Boolean& isCompleted)
   at Microsoft.AspNetCore.Mvc.Internal.ResourceInvoker.InvokeFilterPipelineAsync()
   at Microsoft.AspNetCore.Mvc.Internal.ResourceInvoker.InvokeAsync()
   at Microsoft.AspNetCore.Routing.EndpointMiddleware.Invoke(HttpContext httpContext)
   at Microsoft.AspNetCore.Routing.EndpointRoutingMiddleware.Invoke(HttpContext httpContext)
   at Microsoft.AspNetCore.Diagnostics.ExceptionHandlerMiddleware.Invoke(HttpContext context) ADDITIONALDATA: (null) EXCEPTION: CLIENTIP:(null) HOSTIP:(null) REQUESTIDENTIFIER:(null) SESSIONIDENTIFIER:(null) 
2019-06-04 16:10:43.625 INFO  99 RTTController.Services.Services.CloudService DIAGNOSTICCONTEXT:(null) MESSAGE:AWS File Upload response{"Expiration":null,"ServerSideEncryptionMethod":null,"ETag":"\"04ba20837cb6f31f4152558fa33daee8\"","VersionId":null,"ServerSideEncryptionKeyManagementServiceKeyId":null,"RequestCharged":null,"ResponseMetadata":{"RequestId":"82ED17BC6A713DEE","Metadata":{"x-amz-id-2":"+xwDxSFpR2AJr+RefkohsSF5waR+nuaovXh2gAhgMiT7Q9OyLXeZo4LkbDvBpZ52het7a3OiB7M="}},"ContentLength":0,"HttpStatusCode":200} ADDITIONALDATA: (null) EXCEPTION: CLIENTIP:(null) HOSTIP:(null) REQUESTIDENTIFIER:(null) SESSIONIDENTIFIER:(null) 
2019-06-04 16:10:47.816 ERROR 99 RTTController.Core.API.Middleware.ExceptionMiddlewareExtensions DIAGNOSTICCONTEXT:(null) MESSAGE:Something went wrong: URL /api/game/update   
 System.NullReferenceException: Object reference not set to an instance of an object.
   at RTTController.Services.Services.GameService.UpdateGame(GamePlanRequest request) in D:\Sandeep\Projects\RTTController\RTTController\RTTController.Services\Services\GameService.cs:line 140
   at RTTController.Core.API.Controllers.GamePlanController.UpdateGame() in D:\Sandeep\Projects\RTTController\RTTController\RTTController.Core.API\Controllers\GamePlanController.cs:line 237
   at Microsoft.AspNetCore.Mvc.Internal.ActionMethodExecutor.TaskOfIActionResultExecutor.Execute(IActionResultTypeMapper mapper, ObjectMethodExecutor executor, Object controller, Object[] arguments)
   at System.Threading.Tasks.ValueTask`1.get_Result()
   at Microsoft.AspNetCore.Mvc.Internal.ControllerActionInvoker.InvokeActionMethodAsync()
   at Microsoft.AspNetCore.Mvc.Internal.ControllerActionInvoker.InvokeNextActionFilterAsync()
   at Microsoft.AspNetCore.Mvc.Internal.ControllerActionInvoker.Rethrow(ActionExecutedContext context)
   at Microsoft.AspNetCore.Mvc.Internal.ControllerActionInvoker.Next(State& next, Scope& scope, Object& state, Boolean& isCompleted)
   at Microsoft.AspNetCore.Mvc.Internal.ControllerActionInvoker.InvokeInnerFilterAsync()
   at Microsoft.AspNetCore.Mvc.Internal.ResourceInvoker.InvokeNextResourceFilter()
   at Microsoft.AspNetCore.Mvc.Internal.ResourceInvoker.Rethrow(ResourceExecutedContext context)
   at Microsoft.AspNetCore.Mvc.Internal.ResourceInvoker.Next(State& next, Scope& scope, Object& state, Boolean& isCompleted)
   at Microsoft.AspNetCore.Mvc.Internal.ResourceInvoker.InvokeFilterPipelineAsync()
   at Microsoft.AspNetCore.Mvc.Internal.ResourceInvoker.InvokeAsync()
   at Microsoft.AspNetCore.Routing.EndpointMiddleware.Invoke(HttpContext httpContext)
   at Microsoft.AspNetCore.Routing.EndpointRoutingMiddleware.Invoke(HttpContext httpContext)
   at Microsoft.AspNetCore.Diagnostics.ExceptionHandlerMiddleware.Invoke(HttpContext context) ADDITIONALDATA: (null) EXCEPTION: CLIENTIP:(null) HOSTIP:(null) REQUESTIDENTIFIER:(null) SESSIONIDENTIFIER:(null) 
2019-06-04 16:11:09.925 INFO  98 RTTController.Core.API.Controllers.UserController DIAGNOSTICCONTEXT:(null) MESSAGE:Authenticate User Request:{"Username":"jsingh@ex2india.com","Password":"password123"} ADDITIONALDATA: (null) EXCEPTION: CLIENTIP:(null) HOSTIP:(null) REQUESTIDENTIFIER:(null) SESSIONIDENTIFIER:(null) 
2019-06-04 16:11:32.282 INFO  108 RTTController.Services.Services.CloudService DIAGNOSTICCONTEXT:(null) MESSAGE:AWS File Upload response{"Expiration":null,"ServerSideEncryptionMethod":null,"ETag":"\"04ba20837cb6f31f4152558fa33daee8\"","VersionId":null,"ServerSideEncryptionKeyManagementServiceKeyId":null,"RequestCharged":null,"ResponseMetadata":{"RequestId":"EF5A9264DE44E6C6","Metadata":{"x-amz-id-2":"Wgr6Xl+bTibLZPn/Bl0slunESHMAdopk6j8YD/VGvC75Ni0h+QIGx72uGUibg5jsX6a4p1q30ok="}},"ContentLength":0,"HttpStatusCode":200} ADDITIONALDATA: (null) EXCEPTION: CLIENTIP:(null) HOSTIP:(null) REQUESTIDENTIFIER:(null) SESSIONIDENTIFIER:(null) 
2019-06-04 16:11:38.142 ERROR 108 RTTController.Core.API.Middleware.ExceptionMiddlewareExtensions DIAGNOSTICCONTEXT:(null) MESSAGE:Something went wrong: URL /api/game/update   
 System.NullReferenceException: Object reference not set to an instance of an object.
   at RTTController.Services.Services.GameService.UpdateGame(GamePlanRequest request) in D:\Sandeep\Projects\RTTController\RTTController\RTTController.Services\Services\GameService.cs:line 140
   at RTTController.Core.API.Controllers.GamePlanController.UpdateGame() in D:\Sandeep\Projects\RTTController\RTTController\RTTController.Core.API\Controllers\GamePlanController.cs:line 237
   at Microsoft.AspNetCore.Mvc.Internal.ActionMethodExecutor.TaskOfIActionResultExecutor.Execute(IActionResultTypeMapper mapper, ObjectMethodExecutor executor, Object controller, Object[] arguments)
   at System.Threading.Tasks.ValueTask`1.get_Result()
   at Microsoft.AspNetCore.Mvc.Internal.ControllerActionInvoker.InvokeActionMethodAsync()
   at Microsoft.AspNetCore.Mvc.Internal.ControllerActionInvoker.InvokeNextActionFilterAsync()
   at Microsoft.AspNetCore.Mvc.Internal.ControllerActionInvoker.Rethrow(ActionExecutedContext context)
   at Microsoft.AspNetCore.Mvc.Internal.ControllerActionInvoker.Next(State& next, Scope& scope, Object& state, Boolean& isCompleted)
   at Microsoft.AspNetCore.Mvc.Internal.ControllerActionInvoker.InvokeInnerFilterAsync()
   at Microsoft.AspNetCore.Mvc.Internal.ResourceInvoker.InvokeNextResourceFilter()
   at Microsoft.AspNetCore.Mvc.Internal.ResourceInvoker.Rethrow(ResourceExecutedContext context)
   at Microsoft.AspNetCore.Mvc.Internal.ResourceInvoker.Next(State& next, Scope& scope, Object& state, Boolean& isCompleted)
   at Microsoft.AspNetCore.Mvc.Internal.ResourceInvoker.InvokeFilterPipelineAsync()
   at Microsoft.AspNetCore.Mvc.Internal.ResourceInvoker.InvokeAsync()
   at Microsoft.AspNetCore.Routing.EndpointMiddleware.Invoke(HttpContext httpContext)
   at Microsoft.AspNetCore.Routing.EndpointRoutingMiddleware.Invoke(HttpContext httpContext)
   at Microsoft.AspNetCore.Diagnostics.ExceptionHandlerMiddleware.Invoke(HttpContext context) ADDITIONALDATA: (null) EXCEPTION: CLIENTIP:(null) HOSTIP:(null) REQUESTIDENTIFIER:(null) SESSIONIDENTIFIER:(null) 
2019-06-04 16:31:07.355 INFO  107 RTTController.Services.Services.CloudService DIAGNOSTICCONTEXT:(null) MESSAGE:AWS File Upload response{"Expiration":null,"ServerSideEncryptionMethod":null,"ETag":"\"c1773a81df17becf94c3678e0d0ee9fa\"","VersionId":null,"ServerSideEncryptionKeyManagementServiceKeyId":null,"RequestCharged":null,"ResponseMetadata":{"RequestId":"F561CE1521304E7B","Metadata":{"x-amz-id-2":"p7YAqfH4GkQhmGrcs6fdnumlTYnW7JVrrAePac3u/goIHlvDxIogwfLwGcM0hkUjEX4FMNEA3X0="}},"ContentLength":0,"HttpStatusCode":200} ADDITIONALDATA: (null) EXCEPTION: CLIENTIP:(null) HOSTIP:(null) REQUESTIDENTIFIER:(null) SESSIONIDENTIFIER:(null) 
2019-06-04 16:31:10.552 ERROR 107 RTTController.Core.API.Middleware.ExceptionMiddlewareExtensions DIAGNOSTICCONTEXT:(null) MESSAGE:Something went wrong: URL /api/game/update   
 System.NullReferenceException: Object reference not set to an instance of an object.
   at RTTController.Services.Services.GameService.UpdateGame(GamePlanRequest request) in D:\Sandeep\Projects\RTTController\RTTController\RTTController.Services\Services\GameService.cs:line 140
   at RTTController.Core.API.Controllers.GamePlanController.UpdateGame() in D:\Sandeep\Projects\RTTController\RTTController\RTTController.Core.API\Controllers\GamePlanController.cs:line 237
   at Microsoft.AspNetCore.Mvc.Internal.ActionMethodExecutor.TaskOfIActionResultExecutor.Execute(IActionResultTypeMapper mapper, ObjectMethodExecutor executor, Object controller, Object[] arguments)
   at System.Threading.Tasks.ValueTask`1.get_Result()
   at Microsoft.AspNetCore.Mvc.Internal.ControllerActionInvoker.InvokeActionMethodAsync()
   at Microsoft.AspNetCore.Mvc.Internal.ControllerActionInvoker.InvokeNextActionFilterAsync()
   at Microsoft.AspNetCore.Mvc.Internal.ControllerActionInvoker.Rethrow(ActionExecutedContext context)
   at Microsoft.AspNetCore.Mvc.Internal.ControllerActionInvoker.Next(State& next, Scope& scope, Object& state, Boolean& isCompleted)
   at Microsoft.AspNetCore.Mvc.Internal.ControllerActionInvoker.InvokeInnerFilterAsync()
   at Microsoft.AspNetCore.Mvc.Internal.ResourceInvoker.InvokeNextResourceFilter()
   at Microsoft.AspNetCore.Mvc.Internal.ResourceInvoker.Rethrow(ResourceExecutedContext context)
   at Microsoft.AspNetCore.Mvc.Internal.ResourceInvoker.Next(State& next, Scope& scope, Object& state, Boolean& isCompleted)
   at Microsoft.AspNetCore.Mvc.Internal.ResourceInvoker.InvokeFilterPipelineAsync()
   at Microsoft.AspNetCore.Mvc.Internal.ResourceInvoker.InvokeAsync()
   at Microsoft.AspNetCore.Routing.EndpointMiddleware.Invoke(HttpContext httpContext)
   at Microsoft.AspNetCore.Routing.EndpointRoutingMiddleware.Invoke(HttpContext httpContext)
   at Microsoft.AspNetCore.Diagnostics.ExceptionHandlerMiddleware.Invoke(HttpContext context) ADDITIONALDATA: (null) EXCEPTION: CLIENTIP:(null) HOSTIP:(null) REQUESTIDENTIFIER:(null) SESSIONIDENTIFIER:(null) 
2019-06-04 16:32:58.543 INFO  107 RTTController.Services.Services.CloudService DIAGNOSTICCONTEXT:(null) MESSAGE:AWS File Upload response{"Expiration":null,"ServerSideEncryptionMethod":null,"ETag":"\"cef372bd610c3bf3270cea01cf797697\"","VersionId":null,"ServerSideEncryptionKeyManagementServiceKeyId":null,"RequestCharged":null,"ResponseMetadata":{"RequestId":"6790BB46975812E5","Metadata":{"x-amz-id-2":"9Fu0upOzsGPTdeIU3DD3G2M9eDPOk9TNmLHqZl0PsAYq7ZaEzRYY01BmJyj9tdA9kRd3iEN0eLM="}},"ContentLength":0,"HttpStatusCode":200} ADDITIONALDATA: (null) EXCEPTION: CLIENTIP:(null) HOSTIP:(null) REQUESTIDENTIFIER:(null) SESSIONIDENTIFIER:(null) 
2019-06-04 16:33:00.841 ERROR 107 RTTController.Core.API.Middleware.ExceptionMiddlewareExtensions DIAGNOSTICCONTEXT:(null) MESSAGE:Something went wrong: URL /api/game/update   
 System.NullReferenceException: Object reference not set to an instance of an object.
   at RTTController.Services.Services.GameService.UpdateGame(GamePlanRequest request) in D:\Sandeep\Projects\RTTController\RTTController\RTTController.Services\Services\GameService.cs:line 140
   at RTTController.Core.API.Controllers.GamePlanController.UpdateGame() in D:\Sandeep\Projects\RTTController\RTTController\RTTController.Core.API\Controllers\GamePlanController.cs:line 237
   at Microsoft.AspNetCore.Mvc.Internal.ActionMethodExecutor.TaskOfIActionResultExecutor.Execute(IActionResultTypeMapper mapper, ObjectMethodExecutor executor, Object controller, Object[] arguments)
   at System.Threading.Tasks.ValueTask`1.get_Result()
   at Microsoft.AspNetCore.Mvc.Internal.ControllerActionInvoker.InvokeActionMethodAsync()
   at Microsoft.AspNetCore.Mvc.Internal.ControllerActionInvoker.InvokeNextActionFilterAsync()
   at Microsoft.AspNetCore.Mvc.Internal.ControllerActionInvoker.Rethrow(ActionExecutedContext context)
   at Microsoft.AspNetCore.Mvc.Internal.ControllerActionInvoker.Next(State& next, Scope& scope, Object& state, Boolean& isCompleted)
   at Microsoft.AspNetCore.Mvc.Internal.ControllerActionInvoker.InvokeInnerFilterAsync()
   at Microsoft.AspNetCore.Mvc.Internal.ResourceInvoker.InvokeNextResourceFilter()
   at Microsoft.AspNetCore.Mvc.Internal.ResourceInvoker.Rethrow(ResourceExecutedContext context)
   at Microsoft.AspNetCore.Mvc.Internal.ResourceInvoker.Next(State& next, Scope& scope, Object& state, Boolean& isCompleted)
   at Microsoft.AspNetCore.Mvc.Internal.ResourceInvoker.InvokeFilterPipelineAsync()
   at Microsoft.AspNetCore.Mvc.Internal.ResourceInvoker.InvokeAsync()
   at Microsoft.AspNetCore.Routing.EndpointMiddleware.Invoke(HttpContext httpContext)
   at Microsoft.AspNetCore.Routing.EndpointRoutingMiddleware.Invoke(HttpContext httpContext)
   at Microsoft.AspNetCore.Diagnostics.ExceptionHandlerMiddleware.Invoke(HttpContext context) ADDITIONALDATA: (null) EXCEPTION: CLIENTIP:(null) HOSTIP:(null) REQUESTIDENTIFIER:(null) SESSIONIDENTIFIER:(null) 
2019-06-04 16:34:31.389 INFO  96 RTTController.Services.Services.CloudService DIAGNOSTICCONTEXT:(null) MESSAGE:AWS File Upload response{"Expiration":null,"ServerSideEncryptionMethod":null,"ETag":"\"04ba20837cb6f31f4152558fa33daee8\"","VersionId":null,"ServerSideEncryptionKeyManagementServiceKeyId":null,"RequestCharged":null,"ResponseMetadata":{"RequestId":"1719A38D0B4F3276","Metadata":{"x-amz-id-2":"kiJyw19/P+9NV3FqfEQS1JhtguN70/HEDlDvCKFbBhpsmWbBxlBUtq47y+VqhYwkDxlM7MpFbzI="}},"ContentLength":0,"HttpStatusCode":200} ADDITIONALDATA: (null) EXCEPTION: CLIENTIP:(null) HOSTIP:(null) REQUESTIDENTIFIER:(null) SESSIONIDENTIFIER:(null) 
2019-06-04 16:34:34.304 ERROR 96 RTTController.Core.API.Middleware.ExceptionMiddlewareExtensions DIAGNOSTICCONTEXT:(null) MESSAGE:Something went wrong: URL /api/game/update   
 System.NullReferenceException: Object reference not set to an instance of an object.
   at RTTController.Services.Services.GameService.UpdateGame(GamePlanRequest request) in D:\Sandeep\Projects\RTTController\RTTController\RTTController.Services\Services\GameService.cs:line 140
   at RTTController.Core.API.Controllers.GamePlanController.UpdateGame() in D:\Sandeep\Projects\RTTController\RTTController\RTTController.Core.API\Controllers\GamePlanController.cs:line 237
   at Microsoft.AspNetCore.Mvc.Internal.ActionMethodExecutor.TaskOfIActionResultExecutor.Execute(IActionResultTypeMapper mapper, ObjectMethodExecutor executor, Object controller, Object[] arguments)
   at System.Threading.Tasks.ValueTask`1.get_Result()
   at Microsoft.AspNetCore.Mvc.Internal.ControllerActionInvoker.InvokeActionMethodAsync()
   at Microsoft.AspNetCore.Mvc.Internal.ControllerActionInvoker.InvokeNextActionFilterAsync()
   at Microsoft.AspNetCore.Mvc.Internal.ControllerActionInvoker.Rethrow(ActionExecutedContext context)
   at Microsoft.AspNetCore.Mvc.Internal.ControllerActionInvoker.Next(State& next, Scope& scope, Object& state, Boolean& isCompleted)
   at Microsoft.AspNetCore.Mvc.Internal.ControllerActionInvoker.InvokeInnerFilterAsync()
   at Microsoft.AspNetCore.Mvc.Internal.ResourceInvoker.InvokeNextResourceFilter()
   at Microsoft.AspNetCore.Mvc.Internal.ResourceInvoker.Rethrow(ResourceExecutedContext context)
   at Microsoft.AspNetCore.Mvc.Internal.ResourceInvoker.Next(State& next, Scope& scope, Object& state, Boolean& isCompleted)
   at Microsoft.AspNetCore.Mvc.Internal.ResourceInvoker.InvokeFilterPipelineAsync()
   at Microsoft.AspNetCore.Mvc.Internal.ResourceInvoker.InvokeAsync()
   at Microsoft.AspNetCore.Routing.EndpointMiddleware.Invoke(HttpContext httpContext)
   at Microsoft.AspNetCore.Routing.EndpointRoutingMiddleware.Invoke(HttpContext httpContext)
   at Microsoft.AspNetCore.Diagnostics.ExceptionHandlerMiddleware.Invoke(HttpContext context) ADDITIONALDATA: (null) EXCEPTION: CLIENTIP:(null) HOSTIP:(null) REQUESTIDENTIFIER:(null) SESSIONIDENTIFIER:(null) 
2019-06-04 16:36:28.828 INFO  86 RTTController.Services.Services.CloudService DIAGNOSTICCONTEXT:(null) MESSAGE:AWS File Upload response{"Expiration":null,"ServerSideEncryptionMethod":null,"ETag":"\"b40841793657c9dac8ad374c20f76e2e\"","VersionId":null,"ServerSideEncryptionKeyManagementServiceKeyId":null,"RequestCharged":null,"ResponseMetadata":{"RequestId":"99B69A8904DB3105","Metadata":{"x-amz-id-2":"1/Ep8IiP6Zx1wgm+p6ZGzbIsX32o62Tw3nziOiLwUxz3nWd/5pG4eXU7LRujkc9oqoniF4f0F0Q="}},"ContentLength":0,"HttpStatusCode":200} ADDITIONALDATA: (null) EXCEPTION: CLIENTIP:(null) HOSTIP:(null) REQUESTIDENTIFIER:(null) SESSIONIDENTIFIER:(null) 
2019-06-04 16:36:30.692 ERROR 86 RTTController.Core.API.Middleware.ExceptionMiddlewareExtensions DIAGNOSTICCONTEXT:(null) MESSAGE:Something went wrong: URL /api/game/update   
 System.NullReferenceException: Object reference not set to an instance of an object.
   at RTTController.Services.Services.GameService.UpdateGame(GamePlanRequest request) in D:\Sandeep\Projects\RTTController\RTTController\RTTController.Services\Services\GameService.cs:line 140
   at RTTController.Core.API.Controllers.GamePlanController.UpdateGame() in D:\Sandeep\Projects\RTTController\RTTController\RTTController.Core.API\Controllers\GamePlanController.cs:line 237
   at Microsoft.AspNetCore.Mvc.Internal.ActionMethodExecutor.TaskOfIActionResultExecutor.Execute(IActionResultTypeMapper mapper, ObjectMethodExecutor executor, Object controller, Object[] arguments)
   at System.Threading.Tasks.ValueTask`1.get_Result()
   at Microsoft.AspNetCore.Mvc.Internal.ControllerActionInvoker.InvokeActionMethodAsync()
   at Microsoft.AspNetCore.Mvc.Internal.ControllerActionInvoker.InvokeNextActionFilterAsync()
   at Microsoft.AspNetCore.Mvc.Internal.ControllerActionInvoker.Rethrow(ActionExecutedContext context)
   at Microsoft.AspNetCore.Mvc.Internal.ControllerActionInvoker.Next(State& next, Scope& scope, Object& state, Boolean& isCompleted)
   at Microsoft.AspNetCore.Mvc.Internal.ControllerActionInvoker.InvokeInnerFilterAsync()
   at Microsoft.AspNetCore.Mvc.Internal.ResourceInvoker.InvokeNextResourceFilter()
   at Microsoft.AspNetCore.Mvc.Internal.ResourceInvoker.Rethrow(ResourceExecutedContext context)
   at Microsoft.AspNetCore.Mvc.Internal.ResourceInvoker.Next(State& next, Scope& scope, Object& state, Boolean& isCompleted)
   at Microsoft.AspNetCore.Mvc.Internal.ResourceInvoker.InvokeFilterPipelineAsync()
   at Microsoft.AspNetCore.Mvc.Internal.ResourceInvoker.InvokeAsync()
   at Microsoft.AspNetCore.Routing.EndpointMiddleware.Invoke(HttpContext httpContext)
   at Microsoft.AspNetCore.Routing.EndpointRoutingMiddleware.Invoke(HttpContext httpContext)
   at Microsoft.AspNetCore.Diagnostics.ExceptionHandlerMiddleware.Invoke(HttpContext context) ADDITIONALDATA: (null) EXCEPTION: CLIENTIP:(null) HOSTIP:(null) REQUESTIDENTIFIER:(null) SESSIONIDENTIFIER:(null) 
2019-06-04 16:37:15.471 INFO  86 RTTController.Services.Services.CloudService DIAGNOSTICCONTEXT:(null) MESSAGE:AWS File Upload response{"Expiration":null,"ServerSideEncryptionMethod":null,"ETag":"\"f00f8697d43a00d36f60fa2b09eceb37\"","VersionId":null,"ServerSideEncryptionKeyManagementServiceKeyId":null,"RequestCharged":null,"ResponseMetadata":{"RequestId":"090E09E0EDDAC579","Metadata":{"x-amz-id-2":"mLG+zrGyJY+cws431cHX/lkxVJBn5kiovjMRDTKXd5DVhWTNh6Mpfo72a1Sl8LjbfsMz+j0fp2o="}},"ContentLength":0,"HttpStatusCode":200} ADDITIONALDATA: (null) EXCEPTION: CLIENTIP:(null) HOSTIP:(null) REQUESTIDENTIFIER:(null) SESSIONIDENTIFIER:(null) 
2019-06-04 16:37:18.296 ERROR 86 RTTController.Core.API.Middleware.ExceptionMiddlewareExtensions DIAGNOSTICCONTEXT:(null) MESSAGE:Something went wrong: URL /api/game/update   
 System.NullReferenceException: Object reference not set to an instance of an object.
   at RTTController.Services.Services.GameService.UpdateGame(GamePlanRequest request) in D:\Sandeep\Projects\RTTController\RTTController\RTTController.Services\Services\GameService.cs:line 140
   at RTTController.Core.API.Controllers.GamePlanController.UpdateGame() in D:\Sandeep\Projects\RTTController\RTTController\RTTController.Core.API\Controllers\GamePlanController.cs:line 237
   at Microsoft.AspNetCore.Mvc.Internal.ActionMethodExecutor.TaskOfIActionResultExecutor.Execute(IActionResultTypeMapper mapper, ObjectMethodExecutor executor, Object controller, Object[] arguments)
   at System.Threading.Tasks.ValueTask`1.get_Result()
   at Microsoft.AspNetCore.Mvc.Internal.ControllerActionInvoker.InvokeActionMethodAsync()
   at Microsoft.AspNetCore.Mvc.Internal.ControllerActionInvoker.InvokeNextActionFilterAsync()
   at Microsoft.AspNetCore.Mvc.Internal.ControllerActionInvoker.Rethrow(ActionExecutedContext context)
   at Microsoft.AspNetCore.Mvc.Internal.ControllerActionInvoker.Next(State& next, Scope& scope, Object& state, Boolean& isCompleted)
   at Microsoft.AspNetCore.Mvc.Internal.ControllerActionInvoker.InvokeInnerFilterAsync()
   at Microsoft.AspNetCore.Mvc.Internal.ResourceInvoker.InvokeNextResourceFilter()
   at Microsoft.AspNetCore.Mvc.Internal.ResourceInvoker.Rethrow(ResourceExecutedContext context)
   at Microsoft.AspNetCore.Mvc.Internal.ResourceInvoker.Next(State& next, Scope& scope, Object& state, Boolean& isCompleted)
   at Microsoft.AspNetCore.Mvc.Internal.ResourceInvoker.InvokeFilterPipelineAsync()
   at Microsoft.AspNetCore.Mvc.Internal.ResourceInvoker.InvokeAsync()
   at Microsoft.AspNetCore.Routing.EndpointMiddleware.Invoke(HttpContext httpContext)
   at Microsoft.AspNetCore.Routing.EndpointRoutingMiddleware.Invoke(HttpContext httpContext)
   at Microsoft.AspNetCore.Diagnostics.ExceptionHandlerMiddleware.Invoke(HttpContext context) ADDITIONALDATA: (null) EXCEPTION: CLIENTIP:(null) HOSTIP:(null) REQUESTIDENTIFIER:(null) SESSIONIDENTIFIER:(null) 
2019-06-04 16:38:23.849 INFO  86 RTTController.Services.Services.CloudService DIAGNOSTICCONTEXT:(null) MESSAGE:AWS File Upload response{"Expiration":null,"ServerSideEncryptionMethod":null,"ETag":"\"04ba20837cb6f31f4152558fa33daee8\"","VersionId":null,"ServerSideEncryptionKeyManagementServiceKeyId":null,"RequestCharged":null,"ResponseMetadata":{"RequestId":"C2DBD629BB0BDCED","Metadata":{"x-amz-id-2":"2YcaS5kg6QvMFUwkjt2a0j4SRnymWXJR6vgr3RuHYPKwmI3C6sKOXCoMCYrRH90Xt+08zPm9bV0="}},"ContentLength":0,"HttpStatusCode":200} ADDITIONALDATA: (null) EXCEPTION: CLIENTIP:(null) HOSTIP:(null) REQUESTIDENTIFIER:(null) SESSIONIDENTIFIER:(null) 
2019-06-04 16:38:25.413 ERROR 86 RTTController.Core.API.Middleware.ExceptionMiddlewareExtensions DIAGNOSTICCONTEXT:(null) MESSAGE:Something went wrong: URL /api/game/update   
 System.NullReferenceException: Object reference not set to an instance of an object.
   at RTTController.Services.Services.GameService.UpdateGame(GamePlanRequest request) in D:\Sandeep\Projects\RTTController\RTTController\RTTController.Services\Services\GameService.cs:line 140
   at RTTController.Core.API.Controllers.GamePlanController.UpdateGame() in D:\Sandeep\Projects\RTTController\RTTController\RTTController.Core.API\Controllers\GamePlanController.cs:line 237
   at Microsoft.AspNetCore.Mvc.Internal.ActionMethodExecutor.TaskOfIActionResultExecutor.Execute(IActionResultTypeMapper mapper, ObjectMethodExecutor executor, Object controller, Object[] arguments)
   at System.Threading.Tasks.ValueTask`1.get_Result()
   at Microsoft.AspNetCore.Mvc.Internal.ControllerActionInvoker.InvokeActionMethodAsync()
   at Microsoft.AspNetCore.Mvc.Internal.ControllerActionInvoker.InvokeNextActionFilterAsync()
   at Microsoft.AspNetCore.Mvc.Internal.ControllerActionInvoker.Rethrow(ActionExecutedContext context)
   at Microsoft.AspNetCore.Mvc.Internal.ControllerActionInvoker.Next(State& next, Scope& scope, Object& state, Boolean& isCompleted)
   at Microsoft.AspNetCore.Mvc.Internal.ControllerActionInvoker.InvokeInnerFilterAsync()
   at Microsoft.AspNetCore.Mvc.Internal.ResourceInvoker.InvokeNextResourceFilter()
   at Microsoft.AspNetCore.Mvc.Internal.ResourceInvoker.Rethrow(ResourceExecutedContext context)
   at Microsoft.AspNetCore.Mvc.Internal.ResourceInvoker.Next(State& next, Scope& scope, Object& state, Boolean& isCompleted)
   at Microsoft.AspNetCore.Mvc.Internal.ResourceInvoker.InvokeFilterPipelineAsync()
   at Microsoft.AspNetCore.Mvc.Internal.ResourceInvoker.InvokeAsync()
   at Microsoft.AspNetCore.Routing.EndpointMiddleware.Invoke(HttpContext httpContext)
   at Microsoft.AspNetCore.Routing.EndpointRoutingMiddleware.Invoke(HttpContext httpContext)
   at Microsoft.AspNetCore.Diagnostics.ExceptionHandlerMiddleware.Invoke(HttpContext context) ADDITIONALDATA: (null) EXCEPTION: CLIENTIP:(null) HOSTIP:(null) REQUESTIDENTIFIER:(null) SESSIONIDENTIFIER:(null) 
